<svg width="44" height="44" viewBox="0 0 44 44" fill="none" xmlns="http://www.w3.org/2000/svg">
<g filter="url(#filter0_d)">
<path fill-rule="evenodd" clip-rule="evenodd" d="M22 36C31.9411 36 40 27.9411 40 18C40 8.05887 31.9411 0 22 0C12.0589 0 4 8.05887 4 18C4 27.9411 12.0589 36 22 36Z" fill="white"/>
</g>
<path fill-rule="evenodd" clip-rule="evenodd" d="M24.625 12H15.875C15.392 12 15 12.392 15 12.875V19C15 19.483 15.392 19.875 15.875 19.875H17.625V22.5L20.25 19.875H24.625C25.108 19.875 25.5 19.483 25.5 19V12.875C25.5 12.392 25.108 12 24.625 12ZM27.25 15.5H28.125C28.608 15.5 29 15.892 29 16.375V22.5C29 22.983 28.608 23.375 28.125 23.375H26.375V26L23.75 23.375H19.375L20.9745 21.625H26.375C26.858 21.625 27.25 21.233 27.25 20.75V15.5Z" fill="#09B1BA"/>
<defs>
<filter id="filter0_d" x="0" y="0" width="44" height="44" filterUnits="userSpaceOnUse" color-interpolation-filters="sRGB">
<feFlood flood-opacity="0" result="BackgroundImageFix"/>
<feColorMatrix in="SourceAlpha" type="matrix" values="0 0 0 0 0 0 0 0 0 0 0 0 0 0 0 0 0 0 127 0"/>
<feOffset dy="4"/>
<feGaussianBlur stdDeviation="2"/>
<feColorMatrix type="matrix" values="0 0 0 0 0 0 0 0 0 0 0 0 0 0 0 0 0 0 0.08 0"/>
<feBlend mode="normal" in2="BackgroundImageFix" result="effect1_dropShadow"/>
<feBlend mode="normal" in="SourceGraphic" in2="effect1_dropShadow" result="shape"/>
</filter>
</defs>
</svg>
