<svg width="12" height="11" viewBox="0 0 12 11" fill="none" xmlns="http://www.w3.org/2000/svg">
<path d="M11.25 1.74976L10.5 3.81226L9 3.62476L9.375 10.3748H2.625L3 3.62476L1.5 3.81226L0.75 1.74976L4.5 0.624756C4.8125 1.23413 5.3125 1.54663 6 1.56226C6.67188 1.56226 7.17188 1.24976 7.5 0.624756L11.25 1.74976Z" fill="#9B9B9B"/>
</svg>
