<svg width="16" height="8" viewBox="0 0 16 8" fill="none" xmlns="http://www.w3.org/2000/svg">
<path d="M12.01 3H1C0.45 3 0 3.45 0 4C0 4.55 0.45 5 1 5H12.01V6.79C12.01 7.24 12.55 7.46 12.86 7.14L15.64 4.35C15.83 4.15 15.83 3.84 15.64 3.64L12.86 0.850002C12.55 0.530002 12.01 0.760001 12.01 1.2V3Z" fill="#DC0C1F"/>
</svg>
