<svg width="66" height="21" viewBox="0 0 66 21" fill="none" xmlns="http://www.w3.org/2000/svg">
<path d="M0.453125 14.6562C0.484375 13.7188 0.628906 12.7344 0.886719 11.7031C1.15234 10.6641 1.51172 9.66406 1.96484 8.70312C2.41797 7.74219 2.95312 6.83984 3.57031 5.99609C4.19531 5.15234 4.87891 4.41797 5.62109 3.79297C7.21484 2.44922 8.88672 1.77734 10.6367 1.77734C12.7617 1.77734 14.1484 2.74219 14.7969 4.67188C15.0312 5.35156 15.1328 6.19141 15.1016 7.19141C15.0781 8.18359 14.9258 9.19531 14.6445 10.2266C14.3711 11.2578 13.9961 12.2539 13.5195 13.2148C13.0508 14.1758 12.5 15.0781 11.8672 15.9219C11.2344 16.7578 10.5469 17.4844 9.80469 18.1016C8.21875 19.4453 6.63281 20.1172 5.04688 20.1172C3.625 20.1172 2.49609 19.6523 1.66016 18.7227C0.808594 17.7695 0.40625 16.4141 0.453125 14.6562ZM4.27344 10.1562C3.875 11.0625 3.55078 11.9883 3.30078 12.9336C3.05859 13.8789 2.92578 14.6836 2.90234 15.3477C2.88672 16.0039 2.92578 16.5156 3.01953 16.8828C3.12109 17.2422 3.26172 17.5469 3.44141 17.7969C3.81641 18.3281 4.29688 18.5938 4.88281 18.5938C5.47656 18.5938 6.07031 18.4023 6.66406 18.0195C7.25781 17.6367 7.83203 17.125 8.38672 16.4844C8.94922 15.8438 9.48047 15.1055 9.98047 14.2695C10.4883 13.4336 10.9336 12.5625 11.3164 11.6562C12.4258 9.02344 12.832 6.85156 12.5352 5.14062C12.332 3.95313 11.6836 3.35938 10.5898 3.35938C9.58984 3.35938 8.47656 4.03906 7.25 5.39844C6.09375 6.66406 5.10156 8.25 4.27344 10.1562ZM26.6239 17.6914C26.8036 17.6914 26.8934 17.7812 26.8934 17.9609C26.8934 18.6406 26.5575 19.2109 25.8856 19.6719C25.4325 19.9688 24.9012 20.1172 24.2919 20.1172C23.7919 20.1172 23.4091 20 23.1434 19.7656C22.6669 19.3438 22.4286 18.8281 22.4286 18.2188C22.4286 17.4453 22.7528 16.2617 23.4012 14.668C22.1981 16.293 21.3544 17.375 20.87 17.9141C20.3856 18.4453 19.9637 18.8594 19.6044 19.1562C18.8231 19.7969 18.1161 20.1172 17.4833 20.1172C16.5145 20.1172 15.87 19.6992 15.5497 18.8633C15.4559 18.6055 15.4091 18.3125 15.4091 17.9844C15.4091 17.6484 15.4637 17.2773 15.5731 16.8711C15.6903 16.457 15.8387 16.0273 16.0184 15.582C16.1981 15.1367 16.3934 14.6797 16.6044 14.2109L17.2372 12.8047C18.0497 11 18.3505 9.92969 18.1395 9.59375C18.0458 9.44531 17.87 9.29688 17.6122 9.14844C17.5184 9.09375 17.4716 9 17.4716 8.86719C17.4716 8.72656 17.5262 8.59375 17.6356 8.46875C17.7528 8.34375 17.9012 8.23438 18.0809 8.14062C18.4637 7.96094 18.8466 7.87109 19.2294 7.87109C19.6122 7.87109 19.9012 7.91406 20.0966 8C20.2997 8.07812 20.4637 8.17969 20.5887 8.30469C20.8466 8.5625 20.9755 8.84766 20.9755 9.16016C20.9755 9.47266 20.9247 9.82422 20.8231 10.2148C20.7216 10.5977 20.5887 11.0156 20.4247 11.4688C20.2606 11.9219 20.0809 12.3906 19.8856 12.875C19.3466 14.1406 18.9833 14.9766 18.7958 15.3828L18.3622 16.2852C18.12 16.8242 17.9989 17.2031 17.9989 17.4219C17.9989 17.6406 18.0341 17.7969 18.1044 17.8906C18.1747 17.9766 18.2997 18.0195 18.4794 18.0195C18.6669 18.0195 18.8817 17.9336 19.1239 17.7617C19.3661 17.5898 19.6317 17.3594 19.9208 17.0703C20.2098 16.7812 20.5106 16.4492 20.8231 16.0742C21.1356 15.6914 21.4403 15.2969 21.7372 14.8906C22.3231 14.0938 22.7528 13.4531 23.0262 12.9688C24.6825 10.0391 25.5653 8.50781 25.6747 8.375C25.9247 8.03906 26.1786 7.87109 26.4364 7.87109C26.702 7.87109 26.9325 7.90234 27.1278 7.96484C27.3231 8.01953 27.4911 8.10156 27.6317 8.21094C27.9598 8.45312 28.0653 8.69531 27.9481 8.9375C26.0419 12.9141 25.0145 15.4141 24.8661 16.4375C24.827 16.7891 24.8075 17.0312 24.8075 17.1641C24.8075 17.7578 24.9872 18.0547 25.3466 18.0547C25.6825 18.0547 25.9598 17.9961 26.1786 17.8789C26.3973 17.7539 26.5458 17.6914 26.6239 17.6914ZM35.9197 16.9297C36.1462 16.9297 36.2595 17.082 36.2595 17.3867C36.2595 17.6445 36.1814 17.8945 36.0252 18.1367C35.8142 18.5898 35.3923 19.0195 34.7595 19.4258C34.0408 19.8867 33.3181 20.1172 32.5916 20.1172C31.3337 20.1172 30.5369 19.5547 30.2009 18.4297C29.8025 17.0938 30.4002 14.2617 31.9939 9.93359C31.0955 9.85547 30.6072 9.69922 30.5291 9.46484C30.5056 9.39453 30.4939 9.32031 30.4939 9.24219C30.4939 9.15625 30.5291 9.05859 30.5994 8.94922C30.6775 8.83984 30.7752 8.73438 30.8923 8.63281C31.1658 8.40625 31.4431 8.29297 31.7244 8.29297H32.6502C33.4939 6.31641 34.0955 5.19141 34.4548 4.91797C34.6267 4.79297 34.8181 4.73047 35.0291 4.73047C35.24 4.73047 35.4158 4.75781 35.5564 4.8125C35.697 4.86719 35.822 4.94531 35.9314 5.04688C36.1814 5.28125 36.3064 5.54297 36.3064 5.83203C36.3064 5.98828 36.2595 6.16797 36.1658 6.37109L35.2986 8.25781H35.5798C36.0642 8.25781 36.4548 8.25391 36.7517 8.24609C36.7517 8.24609 36.9744 8.24219 37.4197 8.23438C37.5681 8.22656 37.7517 8.22266 37.9705 8.22266C38.197 8.22266 38.3103 8.30469 38.3103 8.46875C38.3103 9.5 37.0916 10.0156 34.6541 10.0156H34.5603L33.7634 12.0781C32.865 14.5156 32.4158 16.2227 32.4158 17.1992C32.4158 17.4727 32.4783 17.6875 32.6033 17.8438C32.7283 17.9922 32.9627 18.0664 33.3064 18.0664C33.6502 18.0664 33.9627 18.0078 34.2439 17.8906C34.5252 17.7734 34.7712 17.6445 34.9822 17.5039C35.1931 17.3555 35.3728 17.2227 35.5212 17.1055C35.6775 16.9883 35.8103 16.9297 35.9197 16.9297ZM38.4186 19.5312C38.2233 19.3281 38.0631 19.0703 37.9381 18.7578C37.8209 18.4375 37.7623 18.0703 37.7623 17.6562C37.7623 17.2344 37.8561 16.6719 38.0436 15.9688C38.2389 15.2656 38.485 14.4648 38.7819 13.5664L39.7663 10.6484C41.1647 6.58594 41.9733 3.44531 42.192 1.22656C42.2623 0.570312 42.5827 0.242188 43.153 0.242188C43.5123 0.242188 43.8092 0.328125 44.0436 0.5C44.4967 0.84375 44.7155 1.22656 44.6998 1.64844C44.6842 2.07031 44.61 2.58594 44.4772 3.19531C44.3444 3.79687 44.1725 4.45703 43.9616 5.17578C43.7506 5.88672 43.5084 6.64062 43.235 7.4375L41.6178 12.1953C40.6881 14.8984 40.2233 16.6445 40.2233 17.4336C40.2233 17.8555 40.3952 18.0664 40.7389 18.0664C41.067 18.0664 41.3639 17.9961 41.6295 17.8555C41.903 17.7148 42.0788 17.6445 42.1569 17.6445C42.3209 17.6445 42.403 17.7266 42.403 17.8906C42.403 18.5859 42.0475 19.168 41.3366 19.6367C40.86 19.957 40.4225 20.1172 40.0241 20.1172C39.6334 20.1172 39.317 20.0703 39.0748 19.9766C38.8327 19.8828 38.6139 19.7344 38.4186 19.5312ZM44.7847 15.8984C44.8159 15.2188 44.9292 14.5703 45.1245 13.9531C45.3198 13.3281 45.5816 12.7266 45.9097 12.1484C46.2378 11.5625 46.6206 11.0117 47.0581 10.4961C47.5034 9.97266 47.9839 9.51562 48.4995 9.125C49.6167 8.28906 50.7456 7.87109 51.8862 7.87109C53.2222 7.87109 54.1128 8.42188 54.5581 9.52344C54.7144 9.89844 54.7886 10.3438 54.7808 10.8594C54.773 11.3672 54.6753 11.8398 54.4878 12.2773C54.3003 12.707 54.0386 13.1016 53.7027 13.4609C53.3745 13.8125 52.98 14.1289 52.5191 14.4102C52.0659 14.6914 51.5698 14.9297 51.0308 15.125C49.9214 15.5156 48.7339 15.7188 47.4683 15.7344C47.437 15.8438 47.4175 16.0078 47.4097 16.2266C47.4019 16.4453 47.4253 16.6914 47.48 16.9648C47.5347 17.2305 47.6284 17.4688 47.7612 17.6797C48.0425 18.1484 48.4487 18.3828 48.98 18.3828C49.8862 18.3828 50.7691 18.1172 51.6284 17.5859C51.9331 17.4062 52.1792 17.2227 52.3667 17.0352C52.562 16.8398 52.73 16.7422 52.8706 16.7422C53.0112 16.7422 53.1323 16.8281 53.2339 17C53.3433 17.1641 53.398 17.3516 53.398 17.5625C53.398 17.9766 53.2808 18.3359 53.0464 18.6406C52.062 19.625 50.5972 20.1172 48.6519 20.1172C47.5034 20.1172 46.5816 19.7734 45.8862 19.0859C45.105 18.3047 44.7378 17.2422 44.7847 15.8984ZM51.6284 9.42969C50.8081 9.42969 50.0191 9.99219 49.2612 11.1172C48.6206 12.0859 48.105 13.2344 47.7144 14.5625C49.0191 14.4297 50.1519 13.9141 51.1128 13.0156C51.9956 12.1719 52.437 11.3633 52.437 10.5898C52.437 9.81641 52.1675 9.42969 51.6284 9.42969ZM62.9281 16.9297C63.1547 16.9297 63.268 17.082 63.268 17.3867C63.268 17.6445 63.1898 17.8945 63.0336 18.1367C62.8227 18.5898 62.4008 19.0195 61.768 19.4258C61.0492 19.8867 60.3266 20.1172 59.6 20.1172C58.3422 20.1172 57.5453 19.5547 57.2094 18.4297C56.8109 17.0938 57.4086 14.2617 59.0023 9.93359C58.1039 9.85547 57.6156 9.69922 57.5375 9.46484C57.5141 9.39453 57.5023 9.32031 57.5023 9.24219C57.5023 9.15625 57.5375 9.05859 57.6078 8.94922C57.6859 8.83984 57.7836 8.73438 57.9008 8.63281C58.1742 8.40625 58.4516 8.29297 58.7328 8.29297H59.6586C60.5023 6.31641 61.1039 5.19141 61.4633 4.91797C61.6352 4.79297 61.8266 4.73047 62.0375 4.73047C62.2484 4.73047 62.4242 4.75781 62.5648 4.8125C62.7055 4.86719 62.8305 4.94531 62.9398 5.04688C63.1898 5.28125 63.3148 5.54297 63.3148 5.83203C63.3148 5.98828 63.268 6.16797 63.1742 6.37109L62.307 8.25781H62.5883C63.0727 8.25781 63.4633 8.25391 63.7602 8.24609C63.7602 8.24609 63.9828 8.24219 64.4281 8.23438C64.5766 8.22656 64.7602 8.22266 64.9789 8.22266C65.2055 8.22266 65.3187 8.30469 65.3187 8.46875C65.3187 9.5 64.1 10.0156 61.6625 10.0156H61.5687L60.7719 12.0781C59.8734 14.5156 59.4242 16.2227 59.4242 17.1992C59.4242 17.4727 59.4867 17.6875 59.6117 17.8438C59.7367 17.9922 59.9711 18.0664 60.3148 18.0664C60.6586 18.0664 60.9711 18.0078 61.2523 17.8906C61.5336 17.7734 61.7797 17.6445 61.9906 17.5039C62.2016 17.3555 62.3812 17.2227 62.5297 17.1055C62.6859 16.9883 62.8187 16.9297 62.9281 16.9297Z" fill="#09B1BA"/>
</svg>
