<svg width="11" height="21" viewBox="0 0 11 21" fill="none" xmlns="http://www.w3.org/2000/svg">
<path d="M6.75 20.25V11.25H9.75L10.5 7.5H6.75V6C6.75 4.5 7.5015 3.75 9 3.75H10.5V0C9.75 0 8.82 0 7.5 0C4.74375 0 3 2.16075 3 5.25V7.5H0V11.25H3V20.25H6.75Z" fill="#395EAC"/>
</svg>
