<svg width="30" height="30" viewBox="0 0 30 30" fill="none" xmlns="http://www.w3.org/2000/svg">
<g clip-path="url(#clip0)">
<g filter="url(#filter0_d)">
<path fill-rule="evenodd" clip-rule="evenodd" d="M11.7941 27C12.0703 27 12.2941 26.7761 12.2941 26.5V19.0294C12.2941 18.7533 12.518 18.5294 12.7941 18.5294H17.4412C17.7173 18.5294 17.9412 18.7533 17.9412 19.0294V26.5C17.9412 26.7761 18.165 27 18.4412 27H24.5C24.7761 27 25 26.7761 25 26.5V16.2059C25 15.9297 25.2239 15.7059 25.5 15.7059H27.9323C28.3906 15.7059 28.6074 15.1408 28.2668 14.8342L15.4521 3.30103C15.262 3.1299 14.9733 3.1299 14.7832 3.30103L1.9685 14.8342C1.62789 15.1408 1.84474 15.7059 2.30298 15.7059H4.73529C5.01144 15.7059 5.23529 15.9297 5.23529 16.2059V26.5C5.23529 26.7761 5.45915 27 5.73529 27H11.7941Z" fill="#09B1BA"/>
</g>
</g>
<defs>
<filter id="filter0_d" x="-1.19922" y="0.172668" width="34.6313" height="31.8273" filterUnits="userSpaceOnUse" color-interpolation-filters="sRGB">
<feFlood flood-opacity="0" result="BackgroundImageFix"/>
<feColorMatrix in="SourceAlpha" type="matrix" values="0 0 0 0 0 0 0 0 0 0 0 0 0 0 0 0 0 0 127 0"/>
<feOffset dx="1" dy="1"/>
<feGaussianBlur stdDeviation="2"/>
<feColorMatrix type="matrix" values="0 0 0 0 0.8625 0 0 0 0 0.0467188 0 0 0 0 0.120881 0 0 0 0.3 0"/>
<feBlend mode="normal" in2="BackgroundImageFix" result="effect1_dropShadow"/>
<feBlend mode="normal" in="SourceGraphic" in2="effect1_dropShadow" result="shape"/>
</filter>
<clipPath id="clip0">
<rect width="30" height="30" fill="white"/>
</clipPath>
</defs>
</svg>
