<svg width="55" height="23" viewBox="0 0 55 23" fill="none" xmlns="http://www.w3.org/2000/svg">
<path d="M1.1009 1.16033C0.780691 1.33972 0.486745 1.65937 0.294506 2.00529L0 2.56859V11.7972C0 20.501 0.0128532 21.0515 0.243093 21.5505C0.524745 22.1518 0.998078 22.5743 1.6508 22.7537C1.97101 22.856 10.1881 22.8817 27.6472 22.856C51.8391 22.8174 53.2088 22.8051 53.6056 22.5872C53.823 22.4592 54.1689 22.1261 54.3735 21.8322L54.7194 21.2946L54.7579 12.1682C54.7836 6.03728 54.7451 2.87539 54.6557 2.53003C54.5791 2.26123 54.374 1.85161 54.1946 1.63422C53.4905 0.802119 55.6537 0.866385 27.3661 0.866385H1.59994L1.1009 1.16033ZM31.2573 1.53196C31.1164 1.69849 30.9371 1.99244 30.8605 2.18467C30.7582 2.42777 30.7197 5.58965 30.7197 11.9V21.2566L31.0399 21.8199L31.373 22.3703H16.5119C0.192238 22.3703 1.12661 22.4217 0.704131 21.6025C0.537599 21.2823 0.511892 19.9768 0.511892 11.7849C0.511892 1.34028 0.460479 2.03155 1.33114 1.49395C1.71506 1.26371 2.18895 1.25086 16.627 1.25086H31.5261L31.2573 1.53196ZM53.4653 1.50625C54.3103 2.01814 54.2717 1.54481 54.2717 11.9509V21.3717L53.7722 21.8707L53.2731 22.3698H42.7262C32.2045 22.3698 32.1665 22.3698 31.8206 22.101C31.0784 21.512 31.1036 21.9216 31.1036 11.848C31.1036 3.11849 31.1164 2.56803 31.3338 2.14556C31.8329 1.19833 31.2444 1.24974 42.7514 1.24974C52.7484 1.2503 53.0686 1.26316 53.4653 1.50625Z" fill="#158EE6"/>
<path d="M7.16839 7.9188C4.7872 8.32842 3.32808 10.2357 3.48176 12.7443C3.59688 14.5617 4.49269 15.8548 6.02893 16.4181C6.83533 16.6998 8.79348 16.7512 9.7027 16.4952L10.2403 16.3415V15.2021V14.0632L9.71556 14.2426C8.88345 14.5371 7.68028 14.4985 7.16839 14.1403C6.41341 13.6284 6.20831 13.2316 6.20831 12.2587C6.20831 11.3115 6.3877 10.9404 7.07842 10.4157C7.53946 10.0703 8.93431 9.98034 9.70215 10.2491L10.2397 10.4414V9.25106V8.06074L9.57417 7.97133C8.21788 7.80368 7.85911 7.80368 7.16839 7.9188Z" fill="#158EE6"/>
<path d="M14.682 7.90588C13.7605 8.07241 13.005 8.49489 12.3014 9.26273C11.4564 10.1842 11.2005 10.9521 11.2133 12.4498C11.2133 13.3327 11.2776 13.7423 11.495 14.2034C12.1734 15.7139 13.6454 16.6483 15.3605 16.6611C16.6279 16.6611 17.4851 16.3666 18.3044 15.6245C19.3667 14.6773 19.7507 13.7043 19.7378 12.0535C19.7121 10.4922 19.0851 9.26328 17.9328 8.53345C17.037 7.95729 15.7952 7.7142 14.682 7.90588ZM16.3714 10.415C16.8196 10.7861 17.0241 11.388 17.0241 12.3603C17.0241 13.6406 16.4222 14.4342 15.437 14.4342C14.4261 14.4342 13.9522 13.7558 13.9522 12.2709C13.9522 11.2343 14.2467 10.4787 14.7457 10.2485C15.2833 9.97971 15.9489 10.0563 16.3714 10.415Z" fill="#158EE6"/>
<path d="M20.9922 12.3348V16.6484L23.3348 16.5847C25.3444 16.5205 25.7669 16.4825 26.4196 16.2265C27.3797 15.8555 28.1861 15.1256 28.6342 14.1912C28.9545 13.5514 28.9925 13.3463 28.9925 12.1303C28.9925 11.0037 28.941 10.684 28.698 10.1335C28.3269 9.32715 27.7764 8.7767 26.9443 8.39278C26.3553 8.12398 26.0994 8.09827 23.6545 8.06027L20.9922 8.02171V12.3348ZM25.3181 10.2615C26.2525 10.7477 26.6107 12.3482 26.0351 13.4743C25.7149 14.1013 24.8962 14.5623 24.1021 14.5623H23.5516V12.2454V9.9156L24.2429 9.99216C24.6274 10.0307 25.1007 10.1464 25.3181 10.2615Z" fill="#158EE6"/>
<path d="M32.3326 7.0738C32.2941 7.17606 32.2941 7.35545 32.3326 7.45772C32.3969 7.62425 32.9473 7.64995 36.1472 7.64995C38.2082 7.64995 39.9233 7.68851 39.9618 7.72651C40.0004 7.76507 39.9747 7.95675 39.8976 8.1747L39.7567 8.54577H36.8642C33.8052 8.54577 33.4592 8.61003 33.5621 9.13478C33.6006 9.36502 33.7543 9.37787 36.5317 9.41643C39.2454 9.44214 39.4371 9.46784 39.3605 9.67238C39.3091 9.7875 39.2326 9.99259 39.2068 10.1077C39.1431 10.3122 38.9381 10.3379 37.2487 10.3379C35.2648 10.3379 34.996 10.4145 35.0983 10.9398C35.1369 11.1443 35.3414 11.1829 36.9542 11.2343L38.7587 11.2986L37.8757 13.7306C37.389 15.0618 36.9922 16.2778 36.9922 16.4315C36.9922 16.5852 37.0816 16.7517 37.1967 16.7897C37.5555 16.9305 43.9039 16.8791 44.1727 16.7383C44.352 16.636 44.4157 16.4695 44.4157 16.0856C44.4157 15.3943 44.6717 14.831 45.2221 14.3448C46.7841 12.9751 49.0876 13.8586 49.3564 15.919C49.4078 16.2644 49.4972 16.6232 49.5738 16.6997C49.7403 16.9171 51.4811 16.9171 51.6856 16.7126C51.903 16.4952 51.903 12.8214 51.6856 12.6934C51.5962 12.642 50.8407 12.4118 50.0091 12.1944L48.4986 11.7976L47.0009 9.36558L45.5032 6.94638L38.9626 6.90782C33.2161 6.88212 32.3969 6.90782 32.3326 7.0738ZM46.451 10.1463L47.9358 12.5783L49.4464 12.9622L50.944 13.3462V14.6516V15.9699H50.5601C50.2528 15.9699 50.1762 15.919 50.1762 15.6754C50.1634 15.24 49.6895 14.2928 49.2418 13.8195C47.4882 11.9893 44.3649 12.7571 43.6993 15.1892L43.4819 15.9699H40.7554H38.0288L38.477 14.7153C38.733 14.0369 39.3348 12.3475 39.8339 10.9778C40.3329 9.60811 40.8068 8.28982 40.9091 8.05958L41.0756 7.6371L43.0209 7.67566L44.9539 7.71422L46.451 10.1463Z" fill="#158EE6"/>
<path d="M42.7903 8.50743L41.6128 8.55885L41.3569 9.41666C40.845 11.1703 40.6656 11.9638 40.7427 12.1684C40.8198 12.3606 41.1138 12.3857 43.3027 12.3857C45.3766 12.3857 45.8242 12.3472 45.9522 12.1935C46.093 12.027 45.9907 11.7196 45.3889 10.3633C44.6847 8.81479 44.4036 8.39231 44.1091 8.44317C44.032 8.45602 43.443 8.49458 42.7903 8.50743ZM44.4288 10.427L44.9155 11.4894H43.3027H41.7028L41.7799 11.1312C41.8308 10.9389 41.9465 10.4913 42.0616 10.1197C42.2281 9.49266 42.2667 9.4541 42.7271 9.40269C43.8912 9.27527 43.9041 9.27527 44.4288 10.427Z" fill="#158EE6"/>
<path d="M46.1306 14.8188C44.7481 15.5101 44.7095 17.4811 46.0921 18.1724C46.9242 18.6077 47.782 18.4026 48.4347 17.6348C48.7035 17.3146 48.7678 17.0972 48.7678 16.5724C48.7678 15.7146 48.4218 15.139 47.7054 14.8188C47.027 14.4986 46.7839 14.4986 46.1306 14.8188ZM47.6283 15.8297C48.0251 16.2394 48.0765 16.4696 47.8457 16.9049C47.5126 17.5448 46.8599 17.6856 46.2837 17.238C45.7461 16.8155 45.8741 15.8426 46.5011 15.5866C46.9884 15.3944 47.2444 15.4458 47.6283 15.8297Z" fill="#158EE6"/>
</svg>
