<svg width="18" height="18" viewBox="0 0 18 18" fill="none" xmlns="http://www.w3.org/2000/svg">
<path fill-rule="evenodd" clip-rule="evenodd" d="M8.11111 15.2261C12.0385 15.2261 15.2222 12.0415 15.2222 8.11306C15.2222 4.18463 12.0385 1 8.11111 1C4.18375 1 1 4.18463 1 8.11306C1 12.0415 4.18375 15.2261 8.11111 15.2261Z" fill="white" stroke="#09B1BA" stroke-width="2" stroke-linecap="round" stroke-linejoin="round"/>
<path fill-rule="evenodd" clip-rule="evenodd" d="M16.9995 17.0001L13.1328 13.1323L16.9995 17.0001Z" fill="white"/>
<path d="M16.9995 17.0001L13.1328 13.1323" stroke="#09B1BA" stroke-width="2" stroke-linecap="round" stroke-linejoin="round"/>
</svg>
