<svg width="343" height="109" viewBox="0 0 343 109" fill="none" xmlns="http://www.w3.org/2000/svg">
<rect width="343" height="98" rx="6" fill="#DC0C1F"/>
<mask id="mask0" mask-type="alpha" maskUnits="userSpaceOnUse" x="0" y="0" width="342" height="109">
<path d="M0 6C0 2.68629 2.68629 0 6 0H336C339.314 0 342 2.68629 342 6V109H0V6Z" fill="white"/>
</mask>
<g mask="url(#mask0)">
<path d="M236.617 111.769C293.432 111.769 339.491 110.531 339.491 109.004C339.491 107.476 293.432 106.238 236.617 106.238C179.801 106.238 133.742 107.476 133.742 109.004C133.742 110.531 179.801 111.769 236.617 111.769Z" fill="#EDEEF0"/>
<path d="M240.969 52.2706H241.288V46.3442C241.288 44.768 242.574 43.4856 244.154 43.4856C245.734 43.4856 247.019 44.7677 247.019 46.3442V52.2706H247.338V46.3442C247.338 44.5919 245.91 43.1666 244.154 43.1666C242.398 43.1666 240.969 44.5919 240.969 46.3442V52.2706Z" fill="#993129"/>
<path d="M251.629 73.2697H233.961L234.897 50.9269H252.565L251.629 73.2697Z" fill="#DC0C1F"/>
<path d="M238.045 73.2697H255.713L254.777 50.9269H237.109L238.045 73.2697Z" fill="#993129"/>
<path d="M238.045 73.2701L236.003 71.3896L233.961 73.2701H238.045Z" fill="#993129"/>
<g opacity="0.48">
<path opacity="0.48" d="M236.09 71.3892V50.9269H237.196L238.132 73.2697L236.09 71.3892Z" fill="#993129"/>
</g>
<path d="M249.313 52.9134C249.669 52.9134 249.958 52.6254 249.958 52.2701C249.958 51.9148 249.669 51.6268 249.313 51.6268C248.957 51.6268 248.668 51.9148 248.668 52.2701C248.668 52.6254 248.957 52.9134 249.313 52.9134Z" fill="#993129"/>
<path d="M243.508 52.9133C243.864 52.9133 244.152 52.6255 244.152 52.2704C244.152 51.9152 243.864 51.6274 243.508 51.6274C243.152 51.6274 242.863 51.9152 242.863 52.2704C242.863 52.6255 243.152 52.9133 243.508 52.9133Z" fill="#993129"/>
<path d="M243.102 52.2706H243.421V46.3442C243.421 44.768 244.706 43.4856 246.286 43.4856C247.866 43.4856 249.151 44.7677 249.151 46.3442V52.2706H249.471V46.3442C249.471 44.5919 248.043 43.1666 246.286 43.1666C244.53 43.1666 243.102 44.5919 243.102 46.3442V52.2706Z" fill="#993129"/>
<path d="M251.945 47.6283H252.265V41.4766C252.265 39.8373 253.602 38.5034 255.245 38.5034C256.888 38.5034 258.225 39.8373 258.225 41.4766V47.6283H258.545V41.4766C258.545 39.6611 257.065 38.1844 255.245 38.1844C253.425 38.1844 251.945 39.6611 251.945 41.4766V47.6283Z" fill="#002E82"/>
<path d="M263.003 69.4252H244.664L245.635 46.2339H263.975L263.003 69.4252Z" fill="#344A9F"/>
<path d="M248.901 69.4252H267.24L266.269 46.2339H247.93L248.901 69.4252Z" fill="#344A9F"/>
<path d="M248.903 69.425L246.783 67.4737L244.664 69.425H248.903Z" fill="#002E82"/>
<g opacity="0.48">
<path opacity="0.48" d="M246.871 67.4739V46.2339H248.019L248.99 69.4252L246.871 67.4739Z" fill="#002E82"/>
</g>
<path d="M260.599 48.2959C260.968 48.2959 261.268 47.9969 261.268 47.6282C261.268 47.2594 260.968 46.9605 260.599 46.9605C260.229 46.9605 259.93 47.2594 259.93 47.6282C259.93 47.9969 260.229 48.2959 260.599 48.2959Z" fill="#002E82"/>
<path d="M254.575 48.2959C254.945 48.2959 255.245 47.9969 255.245 47.6282C255.245 47.2594 254.945 46.9605 254.575 46.9605C254.206 46.9605 253.906 47.2594 253.906 47.6282C253.906 47.9969 254.206 48.2959 254.575 48.2959Z" fill="#002E82"/>
<path d="M254.16 47.6283H254.48V41.4766C254.48 39.8373 255.816 38.5034 257.46 38.5034C259.103 38.5034 260.439 39.8373 260.439 41.4766V47.6283H260.759V41.4766C260.759 39.6611 259.279 38.1844 257.46 38.1844C255.64 38.1844 254.16 39.6611 254.16 41.4766V47.6283Z" fill="#002E82"/>
<path d="M265.465 62.7713H265.785V55.0991C265.785 53.0326 267.47 51.3515 269.541 51.3515C271.612 51.3515 273.297 53.0326 273.297 55.0991V62.7713H273.617V55.0991C273.617 52.8567 271.788 51.0325 269.541 51.0325C267.293 51.0325 265.465 52.8567 265.465 55.0991V62.7713Z" fill="#993129"/>
<path d="M279.221 89.956H256.348L257.559 61.0317H280.432L279.221 89.956Z" fill="#DC3526"/>
<path d="M261.633 89.956H284.506L283.295 61.0317H260.422L261.633 89.956Z" fill="#DC0C1F"/>
<path d="M261.635 89.9561L258.991 87.5224L256.348 89.9561H261.635Z" fill="#993129"/>
<path d="M259.102 87.5223V61.0317H260.534L261.745 89.956L259.102 87.5223Z" fill="#A22C22"/>
<path d="M276.221 63.6043C276.682 63.6043 277.056 63.2316 277.056 62.7717C277.056 62.3119 276.682 61.9391 276.221 61.9391C275.76 61.9391 275.387 62.3119 275.387 62.7717C275.387 63.2316 275.76 63.6043 276.221 63.6043Z" fill="#993129"/>
<path d="M268.709 63.6043C269.17 63.6043 269.544 63.2316 269.544 62.7717C269.544 62.3119 269.17 61.9391 268.709 61.9391C268.249 61.9391 267.875 62.3119 267.875 62.7717C267.875 63.2316 268.249 63.6043 268.709 63.6043Z" fill="#993129"/>
<path d="M268.227 62.7713H268.547V55.0991C268.547 53.0326 270.231 51.3515 272.303 51.3515C274.374 51.3515 276.059 53.0326 276.059 55.0991V62.7713H276.379V55.0991C276.379 52.8567 274.55 51.0325 272.303 51.0325C270.055 51.0325 268.227 52.8567 268.227 55.0991V62.7713Z" fill="#993129"/>
<path d="M258.703 81.1949H259.023V73.5224C259.023 71.4562 260.708 69.7748 262.779 69.7748C264.85 69.7748 266.535 71.4562 266.535 73.5224V81.1949H266.855V73.5224C266.855 71.2801 265.026 69.4558 262.779 69.4558C260.531 69.4558 258.703 71.2801 258.703 73.5224V81.1949Z" fill="#993129"/>
<path d="M272.455 108.38H249.582L250.793 79.4557H273.666L272.455 108.38Z" fill="#E8664E"/>
<path d="M254.871 108.38H277.744L276.533 79.4557H253.66L254.871 108.38Z" fill="#993129"/>
<path d="M254.869 108.38L252.225 105.946L249.582 108.38H254.869Z" fill="#993129"/>
<g opacity="0.48">
<path opacity="0.48" d="M252.336 105.946V79.4557H253.768L254.979 108.38L252.336 105.946Z" fill="#993129"/>
</g>
<path d="M269.46 82.0278C269.92 82.0278 270.294 81.655 270.294 81.1952C270.294 80.7353 269.92 80.3625 269.46 80.3625C268.999 80.3625 268.625 80.7353 268.625 81.1952C268.625 81.655 268.999 82.0278 269.46 82.0278Z" fill="#993129"/>
<path d="M261.944 82.0278C262.405 82.0278 262.778 81.655 262.778 81.1952C262.778 80.7353 262.405 80.3625 261.944 80.3625C261.483 80.3625 261.109 80.7353 261.109 81.1952C261.109 81.655 261.483 82.0278 261.944 82.0278Z" fill="#993129"/>
<path d="M261.465 81.1949H261.785V73.5224C261.785 71.4562 263.47 69.7748 265.541 69.7748C267.612 69.7748 269.297 71.4562 269.297 73.5224V81.1949H269.617V73.5224C269.617 71.2801 267.788 69.4558 265.541 69.4558C263.294 69.4558 261.465 71.2801 261.465 73.5224V81.1949Z" fill="#993129"/>
<path d="M233.086 81.1949H233.406V73.5224C233.406 71.4562 235.091 69.7748 237.162 69.7748C239.233 69.7748 240.918 71.4562 240.918 73.5224V81.1949H241.238V73.5224C241.238 71.2801 239.409 69.4558 237.162 69.4558C234.915 69.4558 233.086 71.2801 233.086 73.5224V81.1949Z" fill="#993129"/>
<path d="M246.838 108.38H223.965L225.176 79.4557H248.049L246.838 108.38Z" fill="#E8664E"/>
<path d="M229.25 108.38H252.123L250.912 79.4557H228.039L229.25 108.38Z" fill="#993129"/>
<path d="M229.251 108.38L226.608 105.946L223.965 108.38H229.251Z" fill="#993129"/>
<g opacity="0.48">
<path opacity="0.48" d="M226.719 105.946V79.4557H228.151L229.362 108.38L226.719 105.946Z" fill="#993129"/>
</g>
<path d="M243.838 82.0278C244.299 82.0278 244.673 81.655 244.673 81.1952C244.673 80.7353 244.299 80.3625 243.838 80.3625C243.378 80.3625 243.004 80.7353 243.004 81.1952C243.004 81.655 243.378 82.0278 243.838 82.0278Z" fill="#993129"/>
<path d="M236.327 82.0278C236.788 82.0278 237.161 81.655 237.161 81.1952C237.161 80.7353 236.788 80.3625 236.327 80.3625C235.866 80.3625 235.492 80.7353 235.492 81.1952C235.492 81.655 235.866 82.0278 236.327 82.0278Z" fill="#993129"/>
<path d="M235.848 81.1949H236.167V73.5224C236.167 71.4562 237.852 69.7748 239.924 69.7748C241.994 69.7748 243.68 71.4562 243.68 73.5224V81.1949H243.999V73.5224C243.999 71.2801 242.171 69.4558 239.924 69.4558C237.676 69.4558 235.848 71.2801 235.848 73.5224V81.1949Z" fill="#993129"/>
<path d="M277.668 81.2158H277.988V73.5433C277.988 71.4771 279.673 69.7957 281.744 69.7957C283.815 69.7957 285.5 71.4771 285.5 73.5433V81.2158H285.82V73.5433C285.82 71.301 283.991 69.4767 281.744 69.4767C279.496 69.4767 277.668 71.301 277.668 73.5433V81.2158Z" fill="#CB6120"/>
<path d="M291.42 108.402H268.547L269.758 79.477H292.631L291.42 108.402Z" fill="#F9AD5F"/>
<path d="M273.836 108.402H296.709L295.498 79.477H272.625L273.836 108.402Z" fill="#F9AD5F"/>
<path d="M273.833 108.402L271.19 105.968L268.547 108.402H273.833Z" fill="#CB6120"/>
<g opacity="0.48">
<path opacity="0.48" d="M271.301 105.968V79.477H272.733L273.944 108.402L271.301 105.968Z" fill="#993129"/>
</g>
<path d="M288.42 82.0486C288.881 82.0486 289.255 81.6758 289.255 81.216C289.255 80.7561 288.881 80.3834 288.42 80.3834C287.96 80.3834 287.586 80.7561 287.586 81.216C287.586 81.6758 287.96 82.0486 288.42 82.0486Z" fill="#CB6120"/>
<path d="M280.909 82.0486C281.37 82.0486 281.743 81.6758 281.743 81.216C281.743 80.7561 281.37 80.3834 280.909 80.3834C280.448 80.3834 280.074 80.7561 280.074 81.216C280.074 81.6758 280.448 82.0486 280.909 82.0486Z" fill="#CB6120"/>
<path d="M280.43 81.2158H280.749V73.5433C280.749 71.4771 282.435 69.7957 284.506 69.7957C286.576 69.7957 288.262 71.4771 288.262 73.5433V81.2158H288.581V73.5433C288.581 71.301 286.753 69.4767 284.506 69.4767C282.258 69.4767 280.43 71.301 280.43 73.5433V81.2158Z" fill="#CB6120"/>
<path d="M239.875 65.4668H240.195V57.7943C240.195 55.728 241.88 54.0467 243.951 54.0467C246.022 54.0467 247.707 55.7278 247.707 57.7943V65.4668H248.027V57.7943C248.027 55.5519 246.198 53.7277 243.951 53.7277C241.703 53.7277 239.875 55.5519 239.875 57.7943V65.4668Z" fill="#CB6120"/>
<path d="M253.631 92.6521H230.758L231.969 63.7275H254.842L253.631 92.6521Z" fill="#F9AD5F"/>
<path d="M236.043 92.6521H258.916L257.705 63.7275H234.832L236.043 92.6521Z" fill="#F9AD5F"/>
<path d="M236.044 92.6513L233.401 90.2175L230.758 92.6513H236.044Z" fill="#CB6120"/>
<g opacity="0.48">
<path opacity="0.48" d="M233.512 90.2184V63.7275H234.943L236.155 92.6521L233.512 90.2184Z" fill="#993129"/>
</g>
<path d="M250.631 66.2989C251.092 66.2989 251.466 65.9262 251.466 65.4663C251.466 65.0065 251.092 64.6337 250.631 64.6337C250.17 64.6337 249.797 65.0065 249.797 65.4663C249.797 65.9262 250.17 66.2989 250.631 66.2989Z" fill="#CB6120"/>
<path d="M243.12 66.2989C243.58 66.2989 243.954 65.9262 243.954 65.4663C243.954 65.0065 243.58 64.6337 243.12 64.6337C242.659 64.6337 242.285 65.0065 242.285 65.4663C242.285 65.9262 242.659 66.2989 243.12 66.2989Z" fill="#CB6120"/>
<path d="M242.641 65.4668H242.96V57.7943C242.96 55.728 244.646 54.0467 246.716 54.0467C248.788 54.0467 250.473 55.7278 250.473 57.7943V65.4668H250.793V57.7943C250.793 55.5519 248.964 53.7277 246.716 53.7277C244.469 53.7277 242.641 55.5519 242.641 57.7943V65.4668Z" fill="#CB6120"/>
<path d="M250.441 86.7106H250.761V80.5586C250.761 78.9193 252.098 77.5857 253.741 77.5857C255.384 77.5857 256.721 78.9193 256.721 80.5586V86.7106H257.041V80.5586C257.041 78.7432 255.56 77.2664 253.741 77.2664C251.922 77.2664 250.441 78.7432 250.441 80.5586V86.7106Z" fill="#002E82"/>
<path d="M261.5 108.508H243.16L244.131 85.3159H262.471L261.5 108.508Z" fill="#344A9F"/>
<path d="M247.401 108.508H265.74L264.769 85.3159H246.43L247.401 108.508Z" fill="#344A9F"/>
<path d="M247.399 108.507L245.28 106.556L243.16 108.507H247.399Z" fill="#002E82"/>
<g opacity="0.48">
<path opacity="0.48" d="M245.367 106.556V85.3159H246.516L247.487 108.508L245.367 106.556Z" fill="#002E82"/>
</g>
<path d="M259.095 87.378C259.464 87.378 259.763 87.0792 259.763 86.7106C259.763 86.342 259.464 86.0432 259.095 86.0432C258.725 86.0432 258.426 86.342 258.426 86.7106C258.426 87.0792 258.725 87.378 259.095 87.378Z" fill="#002E82"/>
<path d="M253.071 87.378C253.441 87.378 253.741 87.0791 253.741 86.7103C253.741 86.3416 253.441 86.0427 253.071 86.0427C252.702 86.0427 252.402 86.3416 252.402 86.7103C252.402 87.0791 252.702 87.378 253.071 87.378Z" fill="#002E82"/>
<path d="M252.656 86.7106H252.976V80.5586C252.976 78.9193 254.313 77.5857 255.956 77.5857C257.599 77.5857 258.936 78.9193 258.936 80.5586V86.7106H259.255V80.5586C259.255 78.7432 257.775 77.2664 255.956 77.2664C254.136 77.2664 252.656 78.7432 252.656 80.5586V86.7106Z" fill="#002E82"/>
<path d="M296.727 36.5941C296.727 36.5941 299.743 32.9049 309.585 38.0123L296.727 36.5941Z" fill="#FFE3C5"/>
<path d="M320.677 46.6867C320.677 46.6867 326.409 46.5867 323.419 52.4752C320.428 58.3638 320.677 46.6867 320.677 46.6867Z" fill="#FFE3C5"/>
<path d="M300.404 37.142C300.404 37.142 312.927 35.1716 318.071 45.1815C323.214 55.191 299.366 42.8145 300.404 37.142Z" fill="#FFE3C5"/>
<path d="M295.978 25.1714C295.978 25.1714 295.623 19.9394 289.957 19.5413C284.291 19.1433 283.145 27.2077 284.483 29.3357C285.822 31.4642 295.978 25.1714 295.978 25.1714Z" fill="#993129"/>
<path d="M289.436 24.1704C284.909 25.6012 281.649 28.0534 282.155 29.6474C282.662 31.2414 286.742 31.3737 291.268 29.9429C295.795 28.512 299.055 26.0599 298.548 24.4659C298.042 22.8719 293.962 22.7396 289.436 24.1704Z" fill="#E8664E"/>
<path d="M299.669 101.607L297.394 103.786L295.086 101.508L296.994 98.9322L299.669 101.607Z" fill="#F9AD5F"/>
<path d="M298.258 103.566C298.258 103.566 298.877 105.23 299.636 106.496C299.895 106.927 299.947 107.282 299.904 107.562C299.829 108.048 299.247 108.269 298.85 107.976L293.263 103.857C292.663 103.414 292.597 103.033 293.188 102.58C293.749 102.151 294.478 101.219 295.004 101.166C296.113 101.057 297.184 101.176 298.258 103.566Z" fill="#211915"/>
<path d="M322.13 101.452L321.738 104.573L318.507 104.254L318.363 101.054L322.13 101.452Z" fill="#F9AD5F"/>
<path d="M322.274 103.857C322.274 103.857 323.805 104.761 325.193 105.267C325.666 105.44 325.931 105.682 326.074 105.927C326.322 106.352 326.01 106.889 325.517 106.911L318.576 107.222C317.832 107.255 317.539 107 317.713 106.277C317.877 105.592 317.855 104.409 318.231 104.039C319.023 103.256 319.93 102.675 322.274 103.857Z" fill="#211915"/>
<path d="M324.058 74.4368C324.058 74.4368 325.865 93.8346 322.231 102.123H318.077C318.077 102.123 319.238 82.8158 312.489 77.3765C312.489 77.3765 309.534 97.4605 299.15 102.123L296.012 99.7917C296.012 99.7917 301.224 85.2192 299.397 75.6766C299.045 73.8373 300.601 72.1874 302.469 72.3664L324.058 74.4368Z" fill="#617BA3"/>
<path d="M320.576 102.134C321.431 91.0374 319.213 84.6582 317.202 81.261C315.01 77.5589 312.643 76.5129 312.543 76.47L312.43 76.7325C312.454 76.7428 314.827 77.7968 316.97 81.4309C318.953 84.7925 321.139 91.1094 320.29 102.112L320.576 102.134Z" fill="#5B6F8C"/>
<path d="M297.83 101.135C305.75 89.6171 304.562 77.7783 304.549 77.6598L304.264 77.6907C304.277 77.8077 305.451 89.5459 297.594 100.973L297.83 101.135Z" fill="#5B6F8C"/>
<path d="M310.339 43.8032C314.973 49.9563 324.22 63.7766 324.791 76.7344C324.791 76.7344 316.616 73.0405 299.739 74.3C299.739 74.3 299.239 57.2678 291.364 48.1708C286.443 42.4852 290.749 38.4956 296.745 37.8173C302.004 37.2217 307.16 39.5813 310.339 43.8032Z" fill="#E8664E"/>
<path d="M299.737 37.0179C299.737 37.0179 297.299 38.8384 305.431 46.7679C313.563 54.6974 314.487 77.5632 325.576 82.1735C325.576 82.1735 326.176 44.1475 299.737 37.0179Z" fill="#FFE3C5"/>
<path d="M290.619 40.3266C290.619 40.3266 299.285 41.4435 301.311 49.3451C303.337 57.2463 306.736 64.9994 306.745 70.6712C306.755 77.8854 302.119 79.5362 299.394 81.0806C299.394 81.0806 298.548 58.8024 293.391 52.6035C288.235 46.405 287.293 43.2522 290.619 40.3266Z" fill="#FFE3C5"/>
<path d="M296.178 28.7156C296.178 28.7156 296.216 27.1788 297.74 26.6382C299.264 26.0978 300.819 32.8998 297.338 32.7119C297.338 32.7119 298.272 35.1103 296.31 37.4559C296.057 37.7584 292.22 42.5744 288.141 36.6794C288.141 36.6794 288.614 37.2295 286.957 37.1907C285.298 37.1522 284.445 32.4779 285.293 32.0013C286.142 31.5247 286.868 33.1999 286.868 33.1999C286.868 33.1999 284.071 28.9096 287.707 25.9376C291.342 22.9655 295.997 25.0509 296.178 28.7156Z" fill="#F4A173"/>
<path d="M290.609 29.2764L291.031 33.9086L292.912 33.2739L290.609 29.2764Z" fill="#FF5A5A"/>
<path d="M292.843 29.4671C292.709 29.525 292.71 29.826 292.846 30.1394C292.982 30.4529 293.201 30.66 293.335 30.6021C293.469 30.5441 293.468 30.2431 293.332 29.9297C293.196 29.6163 292.977 29.4091 292.843 29.4671Z" fill="#211915"/>
<path d="M288.968 31.1399C288.834 31.1978 288.835 31.4989 288.971 31.8123C289.107 32.1257 289.326 32.3328 289.46 32.2749C289.594 32.217 289.593 31.916 289.457 31.6025C289.321 31.2891 289.102 31.082 288.968 31.1399Z" fill="#211915"/>
<path d="M296.974 28.828C296.974 28.828 297.499 27.8949 298.032 27.7973C298.566 27.6997 299.267 30.1355 298.591 30.8243C297.916 31.5131 297.638 31.28 297.588 30.8596C297.539 30.4392 298.137 29.8961 297.946 29.5472C297.754 29.1982 296.822 29.6004 296.974 28.828Z" fill="#D37A4F"/>
<path d="M286.737 33.4756C286.737 33.4756 286.044 32.8814 285.658 33.0348C285.272 33.1883 285.721 35.6738 286.421 35.9825C287.121 36.2915 287.217 35.9581 287.092 35.5615C286.968 35.1649 286.373 34.9509 286.368 34.5537C286.363 34.1565 287.125 34.0944 286.737 33.4756Z" fill="#D37A4F"/>
<path d="M290.932 37.3544C289.738 37.0933 289.625 35.3755 290.809 35.0727C290.944 35.038 291.092 35.025 291.249 35.0421C292.302 35.1571 293.781 34.5191 294.36 34.1192C294.939 33.7194 295.972 35.5251 293.758 36.7808C292.674 37.3956 291.676 37.517 290.932 37.3544Z" fill="white"/>
<path d="M291.225 30.8289C290.74 29.7085 291.258 28.4028 292.381 27.9183C292.925 27.684 293.528 27.674 294.079 27.8922C294.63 28.11 295.063 28.529 295.299 29.0717C295.784 30.1921 295.266 31.4977 294.143 31.9823C293.857 32.1057 293.559 32.1642 293.265 32.1642C292.406 32.1642 291.587 31.6639 291.225 30.8289ZM292.495 28.1806C291.517 28.6025 291.065 29.7396 291.488 30.7157C291.911 31.6915 293.051 32.1425 294.029 31.7203C295.007 31.2984 295.459 30.1612 295.036 29.1852C294.721 28.4578 294.007 28.0224 293.259 28.0224C293.004 28.0221 292.744 28.073 292.495 28.1806Z" fill="#211915"/>
<path d="M288.152 33.8615C287.601 33.6436 287.167 33.2247 286.932 32.6819C286.447 31.5615 286.965 30.2559 288.088 29.7713C288.632 29.5367 289.235 29.5273 289.786 29.7452C290.337 29.963 290.771 30.382 291.006 30.9247C291.491 32.0451 290.973 33.3508 289.85 33.8353C289.567 33.9573 289.268 34.0185 288.97 34.0185C288.693 34.0182 288.416 33.9659 288.152 33.8615ZM288.202 30.0333C287.224 30.4552 286.772 31.5927 287.195 32.5685C287.618 33.5443 288.757 33.9953 289.736 33.5731C290.714 33.1512 291.166 32.014 290.743 31.0379C290.538 30.5651 290.161 30.2003 289.681 30.0107C289.451 29.9195 289.209 29.8739 288.969 29.8739C288.708 29.8739 288.448 29.9269 288.202 30.0333Z" fill="#211915"/>
<path d="M294.554 28.4422L296.387 28.0753L296.33 27.7951L294.497 28.162L294.554 28.4422Z" fill="#211915"/>
<path d="M286.047 32.1258L287.129 31.1818L286.94 30.9666L285.858 31.9106L286.047 32.1258Z" fill="#211915"/>
<path d="M288.96 29.8653L291.84 28.6228L291.726 28.3605L288.846 29.603L288.96 29.8653Z" fill="#211915"/>
<path d="M300.858 36.6416L301.135 36.5684L299.892 31.8788C299.733 31.2805 299.818 30.654 300.132 30.1148C300.446 29.5756 300.95 29.1916 301.55 29.0331C302.15 28.875 302.777 28.9602 303.318 29.2736C303.858 29.587 304.243 30.0895 304.402 30.6878L305.646 35.3774L305.922 35.3042L304.678 30.6146C304.5 29.9425 304.068 29.3786 303.462 29.0267C302.855 28.6751 302.15 28.5792 301.477 28.7568C300.803 28.9347 300.238 29.3657 299.885 29.9707C299.533 30.5758 299.437 31.2793 299.615 31.9514L300.858 36.6416Z" fill="#002E82"/>
<path d="M313.71 51.0283L299.729 54.7186L295.781 36.8437L309.762 33.1531L313.71 51.0283Z" fill="#344A9F"/>
<path d="M302.959 53.866L316.94 50.1752L311.512 32.6913L297.531 36.3816L302.959 53.866Z" fill="#344A9F"/>
<path d="M302.961 53.8656L300.951 52.8043L299.73 54.7182L302.961 53.8656Z" fill="#002E82"/>
<g opacity="0.48">
<path opacity="0.48" d="M301.017 52.7862L296.723 36.5941L297.598 36.363L303.026 53.8472L301.017 52.7862Z" fill="#002E82"/>
</g>
<path d="M307.469 35.4217C307.76 35.4217 307.996 35.1861 307.996 34.8955C307.996 34.6048 307.76 34.3692 307.469 34.3692C307.178 34.3692 306.941 34.6048 306.941 34.8955C306.941 35.1861 307.178 35.4217 307.469 35.4217Z" fill="#002E82"/>
<path d="M302.879 36.6342C303.171 36.6342 303.407 36.3984 303.407 36.1076C303.407 35.8168 303.171 35.5811 302.879 35.5811C302.588 35.5811 302.352 35.8168 302.352 36.1076C302.352 36.3984 302.588 36.6342 302.879 36.6342Z" fill="#002E82"/>
<path d="M302.546 36.1955L302.823 36.1226L301.579 31.433C301.42 30.8347 301.506 30.2082 301.82 29.669C302.134 29.1298 302.637 28.7459 303.237 28.5874C304.481 28.259 305.76 29.0016 306.089 30.242L307.333 34.9316L307.61 34.8584L306.366 30.1688C305.996 28.7761 304.561 27.9426 303.164 28.311C302.491 28.4889 301.925 28.9202 301.573 29.525C301.22 30.13 301.124 30.8336 301.302 31.5056L302.546 36.1955Z" fill="#002E82"/>
<path d="M297.511 47.35L297.787 47.2768L296.236 41.4279C296.036 40.6727 296.144 39.8815 296.541 39.2012C296.937 38.5206 297.573 38.0358 298.33 37.8359C299.9 37.421 301.515 38.3586 301.93 39.9247L303.481 45.7736L303.758 45.7003L302.207 39.8515C301.751 38.1331 299.978 37.1056 298.257 37.5595C297.426 37.7788 296.728 38.3107 296.293 39.0571C295.858 39.8036 295.74 40.6715 295.959 41.5006L297.511 47.35Z" fill="#CB6120"/>
<path d="M313.509 65.3021L296.072 69.9047L291.148 47.6109L308.585 43.0081L313.509 65.3021Z" fill="#F9AD5F"/>
<path d="M300.102 68.8411L317.539 64.2382L310.769 42.4316L293.332 47.0348L300.102 68.8411Z" fill="#F9AD5F"/>
<path d="M300.101 68.8413L297.593 67.5178L296.07 69.905L300.101 68.8413Z" fill="#CB6120"/>
<g opacity="0.48">
<path opacity="0.48" d="M297.679 67.4952L292.324 47.3004L293.416 47.0123L300.186 68.8185L297.679 67.4952Z" fill="#993129"/>
</g>
<path d="M305.728 45.838C306.092 45.838 306.386 45.544 306.386 45.1815C306.386 44.8189 306.092 44.525 305.728 44.525C305.365 44.525 305.07 44.8189 305.07 45.1815C305.07 45.544 305.365 45.838 305.728 45.838Z" fill="#CB6120"/>
<path d="M300.002 47.3501C300.365 47.3501 300.66 47.0561 300.66 46.6936C300.66 46.331 300.365 46.037 300.002 46.037C299.638 46.037 299.344 46.331 299.344 46.6936C299.344 47.0561 299.638 47.3501 300.002 47.3501Z" fill="#CB6120"/>
<path d="M299.621 46.7941L299.897 46.7209L298.346 40.8718C298.146 40.1165 298.254 39.3256 298.651 38.645C299.047 37.9647 299.683 37.4796 300.44 37.2797C301.196 37.0798 301.989 37.1877 302.671 37.5834C303.353 37.9794 303.839 38.6133 304.04 39.3686L305.591 45.2174L305.868 45.1445L304.316 39.2956C304.097 38.4663 303.564 37.7707 302.815 37.3364C302.067 36.9025 301.198 36.7843 300.366 37.0033C299.535 37.2226 298.838 37.7545 298.403 38.501C297.967 39.2477 297.849 40.1153 298.069 40.9444L299.621 46.7941Z" fill="#CB6120"/>
<path d="M310.061 48.4327L310.338 48.3595L309.095 43.6699C308.936 43.0713 309.021 42.4451 309.336 41.9059C309.65 41.367 310.153 40.9827 310.753 40.8245C311.353 40.6661 311.981 40.7519 312.521 41.0653C313.061 41.3787 313.446 41.8809 313.605 42.4794L314.849 47.1691L315.125 47.0958L313.882 42.4062C313.704 41.7339 313.271 41.17 312.665 40.8183C312.058 40.4664 311.353 40.3706 310.68 40.5488C310.006 40.7266 309.441 41.1576 309.088 41.7627C308.736 42.3677 308.64 43.0713 308.818 43.7434L310.061 48.4327Z" fill="#993129"/>
<path d="M322.913 62.8198L308.932 66.5101L304.984 48.6352L318.965 44.9446L322.913 62.8198Z" fill="#CD3139"/>
<path d="M312.163 65.6568L326.143 61.9663L320.715 44.4821L306.734 48.1726L312.163 65.6568Z" fill="#DC0C1F"/>
<path d="M312.165 65.6573L310.155 64.5963L308.934 66.5102L312.165 65.6573Z" fill="#993129"/>
<g opacity="0.48">
<path opacity="0.48" d="M310.223 64.5777L305.93 48.3857L306.805 48.1546L312.233 65.6388L310.223 64.5777Z" fill="#993129"/>
</g>
<path d="M316.676 47.2138C316.968 47.2138 317.204 46.978 317.204 46.6872C317.204 46.3964 316.968 46.1606 316.676 46.1606C316.385 46.1606 316.148 46.3964 316.148 46.6872C316.148 46.978 316.385 47.2138 316.676 47.2138Z" fill="#993129"/>
<path d="M312.082 48.4257C312.373 48.4257 312.609 48.1901 312.609 47.8994C312.609 47.6088 312.373 47.3732 312.082 47.3732C311.791 47.3732 311.555 47.6088 311.555 47.8994C311.555 48.1901 311.791 48.4257 312.082 48.4257Z" fill="#993129"/>
<path d="M311.749 47.9873L312.026 47.9141L310.782 43.2245C310.453 41.9838 311.197 40.7072 312.441 40.3791C313.04 40.2207 313.668 40.3062 314.208 40.6196C314.749 40.9333 315.134 41.4355 315.293 42.0337L316.536 46.7234L316.813 46.6501L315.569 41.9605C315.391 41.2885 314.959 40.7246 314.353 40.3726C313.746 40.0207 313.041 39.9246 312.367 40.1028C311.694 40.2803 311.129 40.7116 310.776 41.3164C310.423 41.9214 310.327 42.625 310.505 43.2971L311.749 47.9873Z" fill="#993129"/>
<path d="M292.149 52.1284C292.143 52.1196 291.658 49.9031 291.658 49.9031C291.355 49.0294 290.96 48.7554 290.267 47.8625C289.049 46.2913 289.722 41.2548 289.722 41.2548C286.131 45.2673 283.235 53.4094 285.631 59.6854C289.717 70.3929 302.048 61.5285 302.048 61.5285L299.812 56.472C299.812 56.472 290.358 59.596 292.149 52.1284Z" fill="#FFE3C5"/>
<path d="M300.543 58.1105C300.543 58.1105 302.827 56.23 304.223 56.2838C305.618 56.3376 302.74 57.8041 302.74 57.8041C302.74 57.8041 305.654 57.2241 307.398 57.5636C309.142 57.9032 308.979 59.1618 305.741 60.3105C302.503 61.4594 301.9 61.1954 301.9 61.1954L300.543 58.1105Z" fill="#F4A173"/>
<path d="M322.343 49.7142C322.343 49.7142 321.084 51.1675 320.348 52.0233C319.613 52.8792 320.907 55.4561 323.599 53.7612C326.292 52.0668 322.343 49.7142 322.343 49.7142Z" fill="#F4A173"/>
<path d="M323.169 50.8439C323.169 50.8439 324.285 49.0305 321.797 47.9503L322.608 50.8439H323.169Z" fill="#F4A173"/>
<path d="M295.444 26.5304C295.444 26.5304 290.062 26.22 285.844 29.5272L285.516 26.673L288.967 24.5224L293.261 24.2175L294.673 24.5224L295.444 25.3294V26.5304Z" fill="#E8664E"/>
<path d="M162.437 25.0299C162.437 25.0299 161.833 23.7242 160.323 23.8245C158.813 23.925 160.01 30.3425 162.929 28.8916C162.929 28.8916 162.933 33.1546 165.492 34.4414C167.414 35.4084 170.994 35.4654 172.303 28.8916C172.303 28.8916 172.102 29.539 173.511 28.8916C174.921 28.2442 173.914 23.9139 173.008 23.8192C172.102 23.7242 172.102 25.4318 172.102 25.4318C172.102 25.4318 172.907 20.7107 168.679 19.5053C164.451 18.2999 161.229 21.8156 162.437 25.0299Z" fill="#F4A173"/>
<path d="M162.344 24.9774C162.408 25.0153 162.451 25.0765 162.471 25.1479C162.589 25.5942 163.011 27.1889 163.155 27.9062C163.323 28.7453 163.939 27.2665 163.659 26.468C163.379 25.6695 162.004 24.5511 162.439 23.4886C162.874 22.4261 164.612 23.2928 164.724 21.7969C164.836 20.3013 165.908 19.6616 166.941 20.0932C167.974 20.5248 168.03 21.9507 169.151 21.7969C170.272 21.6434 170.496 21.811 170.833 22.5939C171.169 23.3769 171.561 23.4539 171.561 24.0584C171.561 24.6628 171.393 26.5368 171.561 26.9698C171.73 27.4029 172.178 26.9698 172.178 26.9698C172.178 26.9698 172.193 25.1244 172.178 24.7531C172.163 24.3815 172.44 23.9813 173.01 23.8187C173.579 23.6562 174.42 21.5314 173.523 20.9161C172.626 20.301 171.617 19.9094 171.337 17.561C171.057 15.2122 169.977 14.4854 168.135 14.4854C166.293 14.4854 165.172 17.2814 164.107 17.7847C163.043 18.288 160.952 20.2181 161.261 21.3206C161.381 21.7493 161.364 22.2303 161.298 22.658C161.158 23.5671 161.541 24.4888 162.328 24.9677C162.334 24.9709 162.339 24.9742 162.344 24.9774Z" fill="#344A9F"/>
<path d="M163.656 26.4678C163.656 26.4678 163.659 29.0235 164.921 29.5024C166.182 29.9814 166.783 28.6628 168.105 29.0223C169.426 29.3819 171.628 28.0965 171.558 26.9696H172.174C172.174 26.9696 172.249 28.6028 172.61 30.4009C172.97 32.199 171.288 33.0381 170.627 34.6563C169.967 36.2744 168.044 36.8139 166.302 36.1545C164.56 35.4953 164.741 34.3046 162.938 32.8023C161.136 31.3 163.179 28.723 163.179 28.723C163.179 28.723 162.732 26.0071 162.324 24.9678L163.656 26.4678Z" fill="#344A9F"/>
<path d="M170.584 30.4139C170.584 30.4139 169.636 29.5651 168.775 30.0541C167.913 30.543 166.406 30.543 165.76 30.4139C165.114 30.2848 164.899 32.2188 167.267 32.4766C169.636 32.7344 170.928 31.3591 170.584 30.4139Z" fill="white"/>
<path d="M167.431 23.448L168.792 27.5825L166.941 27.7342L167.431 23.448Z" fill="#FF5A5A"/>
<path d="M165.576 25.5913C165.713 25.5913 165.824 25.3323 165.824 25.0127C165.824 24.6932 165.713 24.4341 165.576 24.4341C165.439 24.4341 165.328 24.6932 165.328 25.0127C165.328 25.3323 165.439 25.5913 165.576 25.5913Z" fill="#211915"/>
<path d="M169.529 25.5913C169.666 25.5913 169.777 25.3323 169.777 25.0127C169.777 24.6932 169.666 24.4341 169.529 24.4341C169.392 24.4341 169.281 24.6932 169.281 25.0127C169.281 25.3323 169.392 25.5913 169.529 25.5913Z" fill="#211915"/>
<path d="M165.142 27.3837C163.784 27.3837 162.68 26.2818 162.68 24.9271C162.68 23.5726 163.784 22.4707 165.142 22.4707C166.499 22.4707 167.604 23.5729 167.604 24.9271C167.604 26.2818 166.499 27.3837 165.142 27.3837ZM165.142 22.7565C163.942 22.7565 162.966 23.7305 162.966 24.9274C162.966 26.1245 163.942 27.0983 165.142 27.0983C166.342 27.0983 167.317 26.1245 167.317 24.9274C167.318 23.7302 166.342 22.7565 165.142 22.7565Z" fill="#211915"/>
<path d="M163.512 23.4672L163.41 23.2003L161.46 23.9436L161.562 24.2106L163.512 23.4672Z" fill="#211915"/>
<path d="M168.789 23.0229H166.641V23.3087H168.789V23.0229Z" fill="#211915"/>
<path d="M173.008 23.6757H172.34V23.9615H173.008V23.6757Z" fill="#211915"/>
<path d="M161.796 25.4205C161.796 25.4205 160.998 24.8136 160.504 24.9274C160.009 25.0412 160.314 27.3929 161.15 27.7342C161.986 28.0759 162.138 27.7722 162.024 27.3929C161.91 27.0137 161.194 26.7687 161.229 26.398C161.264 26.0273 162.214 26.0273 161.796 25.4205Z" fill="#D37A4F"/>
<path d="M172.315 25.6197C172.315 25.6197 172.689 24.8526 173.078 24.8415C173.467 24.8303 174.006 27.1308 173.52 27.6556C173.034 28.1804 172.828 27.9296 172.787 27.5427C172.746 27.1561 173.178 26.7516 173.034 26.4091C172.89 26.0663 172.212 26.2953 172.315 25.6197Z" fill="#D37A4F"/>
<path d="M170.306 27.3837C168.948 27.3837 167.844 26.2818 167.844 24.9271C167.844 23.5726 168.948 22.4707 170.306 22.4707C171.664 22.4707 172.768 23.5729 172.768 24.9271C172.768 26.2818 171.664 27.3837 170.306 27.3837ZM170.306 22.7565C169.106 22.7565 168.13 23.7305 168.13 24.9274C168.13 26.1245 169.106 27.0983 170.306 27.0983C171.506 27.0983 172.482 26.1245 172.482 24.9274C172.482 23.7302 171.506 22.7565 170.306 22.7565Z" fill="#211915"/>
<path d="M156.801 64.7697C156.801 64.7697 152.699 77.0589 159.819 76.0493C166.939 75.0397 167.404 71.5649 167.404 71.5649L168.255 69.2482L156.801 64.7697Z" fill="#D1B699"/>
<path d="M180.854 103.384L180.323 106.485L177.109 106.021V102.819L180.854 103.384Z" fill="#F9AD5F"/>
<path d="M180.887 105.794C180.887 105.794 182.375 106.765 183.74 107.333C184.205 107.526 184.458 107.78 184.59 108.031C184.819 108.467 184.483 108.989 183.989 108.989H177.042C176.296 108.989 176.016 108.721 176.222 108.006C176.417 107.329 176.448 106.147 176.84 105.794C177.667 105.048 178.599 104.508 180.887 105.794Z" fill="#211915"/>
<path d="M161.578 103.384L162.11 106.485L165.323 106.021V102.819L161.578 103.384Z" fill="#F9AD5F"/>
<path d="M158.494 61.0771C158.494 61.0771 156.085 86.287 161.154 103.591H166.313C166.313 103.591 167.974 80.4691 171.659 71.3698C171.659 71.3698 176.689 84.6459 176.39 103.591H181.324C181.324 103.591 188.202 74.8008 182.221 61.0771H158.494Z" fill="#617BA3"/>
<path d="M164.535 68.5109C164.535 68.5109 163.547 74.6079 157.92 76.8385C157.92 76.8385 157.857 69.7425 158.046 68.5109H164.535Z" fill="#5B6F8C"/>
<path d="M176.23 67.2065C176.23 67.2065 179.03 73.3037 184.657 75.5343C184.657 75.5343 184.618 69.5279 183.694 66.7793L176.23 67.2065Z" fill="#5B6F8C"/>
<path d="M176.911 103.602L176.626 103.581C178.227 82.1052 171.606 71.5518 171.539 71.4474L171.78 71.2931C171.848 71.3978 178.519 82.0326 176.911 103.602Z" fill="#5B6F8C"/>
<path d="M161.542 105.794C161.542 105.794 160.054 106.765 158.689 107.333C158.224 107.526 157.971 107.78 157.839 108.031C157.61 108.467 157.946 108.989 158.44 108.989H165.387C166.133 108.989 166.413 108.721 166.207 108.006C166.012 107.329 165.981 106.147 165.589 105.794C164.763 105.048 163.83 104.508 161.542 105.794Z" fill="#211915"/>
<path d="M160.699 102.819L160.964 103.788H166.713L166.879 102.819H160.699Z" fill="#5B6F8C"/>
<path d="M156.134 74.5637C156.134 74.5637 158.734 68.6234 166.881 71.0028C175.028 73.3821 183.283 74.2706 187.502 70.4403C187.502 70.4403 178.513 35.8621 168.424 34.398C158.335 32.9336 147.879 43.1674 156.134 74.5637Z" fill="#EFD6B7"/>
<path d="M172.352 34.1345H172.066V28.0813C172.066 26.4602 170.744 25.1416 169.12 25.1416C167.495 25.1416 166.173 26.4602 166.173 28.0813V34.1345H165.887V28.0813C165.887 26.3029 167.337 24.8558 169.119 24.8558C170.902 24.8558 172.352 26.3026 172.352 28.0813V34.1345H172.352Z" fill="#CB6120"/>
<path d="M161.487 55.5818H179.533L178.577 32.7618H160.531L161.487 55.5818Z" fill="#F9AD5F"/>
<path d="M175.358 55.5818H157.312L158.268 32.7618H176.314L175.358 55.5818Z" fill="#F9AD5F"/>
<path d="M175.359 55.5822L177.445 53.662L179.53 55.5822H175.359Z" fill="#CB6120"/>
<g opacity="0.48">
<path opacity="0.48" d="M177.359 53.6616V32.7618H176.229L175.273 55.5818L177.359 53.6616Z" fill="#993129"/>
</g>
<path d="M163.85 34.791C164.213 34.791 164.508 34.4969 164.508 34.1342C164.508 33.7714 164.213 33.4774 163.85 33.4774C163.486 33.4774 163.191 33.7714 163.191 34.1342C163.191 34.4969 163.486 34.791 163.85 34.791Z" fill="#CB6120"/>
<path d="M169.779 34.791C170.143 34.791 170.438 34.4969 170.438 34.1342C170.438 33.7714 170.143 33.4774 169.779 33.4774C169.416 33.4774 169.121 33.7714 169.121 34.1342C169.121 34.4969 169.416 34.791 169.779 34.791Z" fill="#CB6120"/>
<path d="M170.173 34.1345H169.886V28.0813C169.886 26.4602 168.565 25.1416 166.94 25.1416C165.315 25.1416 163.993 26.4602 163.993 28.0813V34.1345H163.707V28.0813C163.707 26.3029 165.157 24.8558 166.94 24.8558C168.723 24.8558 170.173 26.3026 170.173 28.0813V34.1345H170.173Z" fill="#CB6120"/>
<path d="M169.452 38.5877H169.165V33.7344C169.165 32.4502 168.118 31.4056 166.831 31.4056C165.545 31.4056 164.497 32.4502 164.497 33.7344V38.5877H164.211V33.7344C164.211 32.2929 165.386 31.1198 166.831 31.1198C168.276 31.1198 169.452 32.2929 169.452 33.7344V38.5877Z" fill="#993129"/>
<path d="M160.711 55.7849H175.18L174.414 37.4879H159.945L160.711 55.7849Z" fill="#CD3139"/>
<path d="M171.836 55.7849H157.367L158.133 37.4879H172.602L171.836 55.7849Z" fill="#DC0C1F"/>
<path d="M171.836 55.7848L173.508 54.2451L175.18 55.7848H171.836Z" fill="#993129"/>
<g opacity="0.48">
<path opacity="0.48" d="M173.438 54.2453V37.4879H172.532L171.766 55.7849L173.438 54.2453Z" fill="#A22C22"/>
</g>
<path d="M162.606 39.1146C162.897 39.1146 163.134 38.8788 163.134 38.588C163.134 38.2972 162.897 38.0615 162.606 38.0615C162.314 38.0615 162.078 38.2972 162.078 38.588C162.078 38.8788 162.314 39.1146 162.606 39.1146Z" fill="#993129"/>
<path d="M167.36 39.1146C167.651 39.1146 167.888 38.8788 167.888 38.588C167.888 38.2972 167.651 38.0615 167.36 38.0615C167.068 38.0615 166.832 38.2972 166.832 38.588C166.832 38.8788 167.068 39.1146 167.36 39.1146Z" fill="#993129"/>
<path d="M167.706 38.5877H167.419V33.7344C167.419 32.4502 166.372 31.4056 165.085 31.4056C163.798 31.4056 162.751 32.4502 162.751 33.7344V38.5877H162.465V33.7344C162.465 32.2929 163.64 31.1198 165.085 31.1198C166.53 31.1198 167.706 32.2929 167.706 33.7344V38.5877Z" fill="#993129"/>
<path d="M162.177 47.1432L160.556 42.1676C160.325 41.4573 160.386 40.6973 160.728 40.0273C161.07 39.3575 161.65 38.8612 162.362 38.6305C163.837 38.1521 165.428 38.9606 165.907 40.4327L167.528 45.4081L167.256 45.4963L165.635 40.5206C165.205 39.1982 163.775 38.4726 162.451 38.9021C161.812 39.1094 161.29 39.5551 160.983 40.1569C160.676 40.759 160.621 41.4417 160.829 42.0794L162.449 47.055L162.177 47.1432Z" fill="#002E82"/>
<path d="M164.321 65.9406L179.155 61.1305L172.259 42.6276L157.426 47.4372L164.321 65.9406Z" fill="#344A9F"/>
<path d="M175.724 62.2422L160.891 67.052L155.566 48.0393L170.4 43.2294L175.724 62.2422Z" fill="#344A9F"/>
<path d="M175.723 62.2426L176.923 60.1081L179.151 61.1306L175.723 62.2426Z" fill="#002E82"/>
<g opacity="0.48">
<path opacity="0.48" d="M176.853 60.1315L171.257 42.9519L170.328 43.253L175.653 62.2656L176.853 60.1315Z" fill="#002E82"/>
</g>
<path d="M160.522 48.2478C160.836 48.2478 161.091 47.9936 161.091 47.6801C161.091 47.3665 160.836 47.1124 160.522 47.1124C160.208 47.1124 159.953 47.3665 159.953 47.6801C159.953 47.9936 160.208 48.2478 160.522 48.2478Z" fill="#002E82"/>
<path d="M165.393 46.668C165.707 46.668 165.962 46.4138 165.962 46.1003C165.962 45.7868 165.707 45.5326 165.393 45.5326C165.079 45.5326 164.824 45.7868 164.824 46.1003C164.824 46.4138 165.079 46.668 165.393 46.668Z" fill="#002E82"/>
<path d="M160.388 47.7238L158.767 42.7481C158.287 41.2764 159.098 39.6894 160.573 39.211C162.049 38.7327 163.639 39.5412 164.118 41.0132L165.739 45.9886L165.467 46.0768L163.846 41.1014C163.415 39.779 161.986 39.0534 160.661 39.4827C159.336 39.9125 158.608 41.3378 159.039 42.6602L160.66 47.6359L160.388 47.7238Z" fill="#002E82"/>
<path d="M153.269 56.9343C156.189 59.1199 161.611 60.7469 171.657 58.7854L171.291 55.0145C171.291 55.0145 159.563 57.6249 154.842 43.5236L151.712 48.7021C150.056 51.4416 150.704 55.0142 153.269 56.9343Z" fill="#F4A173"/>
<path d="M181.908 41.312C181.193 41.192 180.504 41.2782 179.892 41.5196C180.128 41.7836 180.228 42.1587 180.058 42.6115C179.492 44.1244 179.162 45.7661 178.744 47.3272C178.557 48.024 178.452 48.7605 178.07 49.3882C177.951 49.5846 177.806 49.7639 177.653 49.9365C176.812 56.5515 171.836 60.5879 171.836 60.5879L174.027 62.8993C190.414 51.5947 181.908 41.312 181.908 41.312Z" fill="#F4A173"/>
<path d="M157.841 42.9918C157.841 42.9695 157.888 41.8843 157.889 41.8611C157.916 39.8745 158.106 36.6682 158.106 36.6682C154.216 38.8238 149.017 43.1473 147.94 49.7764C146.102 61.0863 161.224 59.5763 161.224 59.5763L161.94 53.0616C161.94 53.0619 154.406 47.552 157.841 42.9918Z" fill="#FFE3C5"/>
<path d="M181.868 40.2905C180.995 39.1304 179.695 37.7812 178.754 37.0174C178.766 38.7041 178.742 41.1334 178.777 42.8004C178.835 45.5425 178.95 43.8132 178.617 46.4101C178.643 46.8487 177.321 51.1323 177.332 51.5951L183.992 52.8857C183.992 52.8857 187.512 47.789 181.868 40.2905Z" fill="#FFE3C5"/>
<path d="M171.098 55.0513C171.098 55.0513 172.468 53.259 173.754 52.8851C175.041 52.5114 172.849 54.7846 172.849 54.7846C172.849 54.7846 175.332 53.3449 177.019 53.1367C178.707 52.9286 178.926 54.1769 176.314 56.2572C173.702 58.3376 171.658 58.7854 171.658 58.7854L171.098 55.0513Z" fill="#F4A173"/>
<path d="M171.836 60.5878C171.836 60.5878 168.922 60.8301 168.009 61.8071C167.094 62.7843 170.116 61.8564 170.116 61.8564C170.116 61.8564 167.709 63.4197 166.763 64.8288C165.817 66.238 166.835 66.9959 169.873 65.6067C172.911 64.217 174.233 62.5979 174.233 62.5979L171.836 60.5878Z" fill="#F4A173"/>
<path d="M158.037 75.6381H157.751V70.4064C157.751 69.016 156.617 67.885 155.224 67.885C153.83 67.885 152.697 69.0163 152.697 70.4064V75.6381H152.41V70.4064C152.41 68.8584 153.672 67.5992 155.224 67.5992C156.775 67.5992 158.037 68.8584 158.037 70.4064V75.6381Z" fill="#002E82"/>
<path d="M148.623 94.1755H164.22L163.394 74.4519H147.797L148.623 94.1755Z" fill="#344A9F"/>
<path d="M160.616 94.1755H145.02L145.845 74.4519H161.442L160.616 94.1755Z" fill="#344A9F"/>
<path d="M160.617 94.1756L162.42 92.5157L164.222 94.1756H160.617Z" fill="#002E82"/>
<g opacity="0.48">
<path opacity="0.48" d="M162.345 92.5156V74.4519H161.369L160.543 94.1755L162.345 92.5156Z" fill="#002E82"/>
</g>
<path d="M150.671 76.2057C150.985 76.2057 151.24 75.9515 151.24 75.638C151.24 75.3244 150.985 75.0703 150.671 75.0703C150.356 75.0703 150.102 75.3244 150.102 75.638C150.102 75.9515 150.356 76.2057 150.671 76.2057Z" fill="#002E82"/>
<path d="M155.792 76.2057C156.106 76.2057 156.361 75.9515 156.361 75.638C156.361 75.3244 156.106 75.0703 155.792 75.0703C155.477 75.0703 155.223 75.3244 155.223 75.638C155.223 75.9515 155.477 76.2057 155.792 76.2057Z" fill="#002E82"/>
<path d="M156.154 75.6381H155.868V70.4064C155.868 69.016 154.734 67.885 153.341 67.885C151.947 67.885 150.813 69.0163 150.813 70.4064V75.6381H150.527V70.4064C150.527 68.8584 151.789 67.5992 153.341 67.5992C154.892 67.5992 156.154 68.8584 156.154 70.4064V75.6381Z" fill="#002E82"/>
<path d="M164.486 85.8829H164.2V79.3582C164.2 77.6045 162.77 76.178 161.013 76.178C159.255 76.178 157.825 77.6048 157.825 79.3582V85.8829H157.539V79.3582C157.539 77.4472 159.098 75.8922 161.013 75.8922C162.928 75.8922 164.486 77.4472 164.486 79.3582V85.8829Z" fill="#CB6120"/>
<path d="M152.78 109.003H172.233L171.203 84.4041H151.75L152.78 109.003Z" fill="#F9AD5F"/>
<path d="M167.738 109.003H148.285L149.315 84.4041H168.768L167.738 109.003Z" fill="#F9AD5F"/>
<path d="M167.738 109.003L169.986 106.933L172.234 109.003H167.738Z" fill="#CB6120"/>
<g opacity="0.48">
<path opacity="0.48" d="M169.893 106.933V84.4041H168.675L167.645 109.003L169.893 106.933Z" fill="#993129"/>
</g>
<path d="M155.331 86.5909C155.723 86.5909 156.04 86.2739 156.04 85.8829C156.04 85.4919 155.723 85.175 155.331 85.175C154.939 85.175 154.621 85.4919 154.621 85.8829C154.621 86.2739 154.939 86.5909 155.331 86.5909Z" fill="#CB6120"/>
<path d="M161.721 86.5909C162.113 86.5909 162.431 86.2739 162.431 85.8829C162.431 85.4919 162.113 85.175 161.721 85.175C161.329 85.175 161.012 85.4919 161.012 85.8829C161.012 86.2739 161.329 86.5909 161.721 86.5909Z" fill="#CB6120"/>
<path d="M162.135 85.8829H161.848V79.3582C161.848 77.6045 160.418 76.178 158.661 76.178C156.904 76.178 155.474 77.6048 155.474 79.3582V85.8829H155.188V79.3582C155.188 77.4472 156.746 75.8922 158.661 75.8922C160.576 75.8922 162.135 77.4472 162.135 79.3582V85.8829Z" fill="#CB6120"/>
<path d="M151.701 90.4656H151.415V85.2336C151.415 83.8432 150.281 82.7122 148.888 82.7122C147.494 82.7122 146.361 83.8432 146.361 85.2336V90.4656H146.074V85.2336C146.074 83.6857 147.336 82.4268 148.888 82.4268C150.439 82.4268 151.701 83.6857 151.701 85.2336V90.4656Z" fill="#993129"/>
<path d="M142.287 109.003H157.884L157.058 89.2795H141.461L142.287 109.003Z" fill="#CD3139"/>
<path d="M154.281 109.003H138.684L139.51 89.2795H155.107L154.281 109.003Z" fill="#DC0C1F"/>
<path d="M154.281 109.003L156.084 107.343L157.886 109.003H154.281Z" fill="#993129"/>
<g opacity="0.48">
<path opacity="0.48" d="M156.01 107.343V89.2795H155.033L154.207 109.003L156.01 107.343Z" fill="#993129"/>
</g>
<path d="M144.335 91.0332C144.649 91.0332 144.904 90.7791 144.904 90.4655C144.904 90.152 144.649 89.8978 144.335 89.8978C144.02 89.8978 143.766 90.152 143.766 90.4655C143.766 90.7791 144.02 91.0332 144.335 91.0332Z" fill="#993129"/>
<path d="M149.456 91.0332C149.77 91.0332 150.025 90.7791 150.025 90.4655C150.025 90.152 149.77 89.8978 149.456 89.8978C149.141 89.8978 148.887 90.152 148.887 90.4655C148.887 90.7791 149.141 91.0332 149.456 91.0332Z" fill="#993129"/>
<path d="M149.819 90.4656H149.532V85.2336C149.532 83.8432 148.399 82.7122 147.005 82.7122C145.612 82.7122 144.478 83.8432 144.478 85.2336V90.4656H144.191V85.2336C144.191 83.6857 145.453 82.4268 147.005 82.4268C148.556 82.4268 149.818 83.6857 149.818 85.2336V90.4656H149.819Z" fill="#993129"/>
<path d="M214.473 87.2966H214.759V81.2337C214.759 79.61 216.083 78.289 217.71 78.289C219.338 78.289 220.662 79.6097 220.662 81.2337V87.2966H220.948V81.2337C220.948 79.4524 219.496 78.0035 217.71 78.0035C215.925 78.0035 214.473 79.4527 214.473 81.2337V87.2966H214.473Z" fill="#CB6120"/>
<path d="M225.357 108.78H207.281L208.239 85.9224H226.313L225.357 108.78Z" fill="#F9AD5F"/>
<path d="M211.461 108.78H229.536L228.579 85.9224H210.504L211.461 108.78Z" fill="#F9AD5F"/>
<path d="M211.459 108.78L209.37 106.857L207.281 108.78H211.459Z" fill="#CB6120"/>
<g opacity="0.48">
<path opacity="0.48" d="M209.457 106.856V85.9224H210.589L211.546 108.78L209.457 106.856Z" fill="#993129"/>
</g>
<path d="M222.988 87.9547C223.352 87.9547 223.647 87.6601 223.647 87.2967C223.647 86.9333 223.352 86.6387 222.988 86.6387C222.623 86.6387 222.328 86.9333 222.328 87.2967C222.328 87.6601 222.623 87.9547 222.988 87.9547Z" fill="#CB6120"/>
<path d="M217.05 87.9547C217.414 87.9547 217.71 87.6601 217.71 87.2967C217.71 86.9333 217.414 86.6387 217.05 86.6387C216.686 86.6387 216.391 86.9333 216.391 87.2967C216.391 87.6601 216.686 87.9547 217.05 87.9547Z" fill="#CB6120"/>
<path d="M216.656 87.2966H216.943V81.2337C216.943 79.61 218.267 78.289 219.894 78.289C221.522 78.289 222.845 79.6097 222.845 81.2337V87.2966H223.132V81.2337C223.132 79.4524 221.679 78.0035 219.894 78.0035C218.109 78.0035 216.656 79.4527 216.656 81.2337V87.2966Z" fill="#CB6120"/>
<path d="M217.824 75.9899C217.824 75.9899 217.729 77.6557 206.638 76.8628C195.548 76.0702 193.68 74.1004 193.68 74.1004L200.979 69.9549L216.02 68.3391L217.824 75.9899Z" fill="#993129"/>
<path d="M207.877 38.66C211.148 38.66 213.8 36.014 213.8 32.75C213.8 29.486 211.148 26.84 207.877 26.84C204.605 26.84 201.953 29.486 201.953 32.75C201.953 36.014 204.605 38.66 207.877 38.66Z" fill="#344A9F"/>
<path d="M207.878 47.8096C213.02 47.8096 217.189 43.6503 217.189 38.5195C217.189 33.3887 213.02 29.2294 207.878 29.2294C202.735 29.2294 198.566 33.3887 198.566 38.5195C198.566 43.6503 202.735 47.8096 207.878 47.8096Z" fill="#344A9F"/>
<path d="M207.878 62.3683C214.725 62.3683 220.276 56.8302 220.276 49.9986C220.276 43.1669 214.725 37.6288 207.878 37.6288C201.031 37.6288 195.48 43.1669 195.48 49.9986C195.48 56.8302 201.031 62.3683 207.878 62.3683Z" fill="#344A9F"/>
<path d="M214.961 102.658V105.455L217.371 109.426L218.649 108.526C218.649 108.526 218.244 106.835 217.371 106.043V101.495L214.961 102.658Z" fill="#F4A173"/>
<path d="M214.965 104.646C214.965 104.646 213.633 105.454 213.814 106.305C214.121 107.749 214.172 108.142 214.172 108.729C214.172 109.316 214.172 110.286 214.172 110.286H214.632V107.913C214.632 107.913 214.683 107.07 215.221 107.466C215.221 107.466 215.963 108.576 216.167 109.163C216.372 109.75 217.037 110.286 217.369 110.286C217.701 110.286 220.95 110.286 220.95 110.286C220.95 110.286 221.078 109.443 220.234 109.443C219.39 109.443 218.801 108.984 218.648 108.525C218.648 108.525 217.855 109.009 217.164 107.963C216.474 106.917 216.499 105.284 214.965 104.646Z" fill="#DC0C1F"/>
<path d="M191.915 100.67L190.578 103.128L190.799 107.765L192.352 107.582C192.352 107.582 192.804 105.903 192.416 104.791L194.589 100.794L191.915 100.67Z" fill="#F4A173"/>
<path d="M190.971 102.42C190.971 102.42 189.413 102.497 189.166 103.331C188.746 104.746 188.603 105.116 188.322 105.632C188.042 106.148 187.578 107 187.578 107L187.983 107.219L189.117 105.133C189.117 105.133 189.565 104.417 189.848 105.02C189.848 105.02 189.969 106.349 189.868 106.962C189.768 107.575 190.096 108.363 190.388 108.521C190.681 108.679 193.536 110.225 193.536 110.225C193.536 110.225 194.051 109.545 193.309 109.144C192.567 108.742 192.269 108.058 192.354 107.582C192.354 107.582 191.425 107.63 191.318 106.382C191.212 105.134 192.015 103.711 190.971 102.42Z" fill="#DC0C1F"/>
<path d="M231.628 32.9678L224.575 43.7588C224.372 44.0407 224.094 44.2618 223.774 44.3979L214.73 49.998L212.684 45.2973L222.673 40.5168L229.659 32.5312L231.628 32.9678Z" fill="#F4A173"/>
<path d="M186.168 67.8414L195.61 60.3958L202.511 51.0028L198.476 49.688L193.132 57.7919L184.848 66.3264L186.168 67.8414Z" fill="#F4A173"/>
<path d="M213.544 67.8409L217.875 86.2135L218.352 103.894H214.685L213.024 87.0094L204.805 74.4915L213.544 67.8409Z" fill="#617BA3"/>
<path d="M210.277 69.8525L202.699 87.4746L194.263 103.03L191.086 101.203L198.098 85.7468L197.242 70.8063L210.277 69.8525Z" fill="#617BA3"/>
<path d="M216.26 103.899L216.514 103.89L215.874 86.9178L215.858 86.8905L208.918 75.1537L208.699 75.2825L215.622 86.9916L216.26 103.899Z" stroke="#5B6F8C" stroke-miterlimit="10"/>
<path d="M192.594 102.147L200.544 86.2493L201.6 74.9144L201.347 74.8909L200.296 86.1784L192.367 102.033L192.594 102.147Z" stroke="#5B6F8C" stroke-miterlimit="10"/>
<path d="M220.303 47.2675L216.193 49.6741C215.22 51.1618 214.824 52.9517 215.077 54.7098L217.824 75.9901C217.824 75.9901 207.844 74.1767 201.73 75.9901C195.616 77.8038 192.973 75.9901 192.973 75.9901L199.721 54.4793L196.342 53.5467C195.907 53.4268 195.714 52.9199 195.961 52.5436C196.906 51.1021 199.099 47.9331 201.42 45.7951C204.268 43.1712 208.438 44.6597 216.725 42.6819C216.976 42.622 217.239 42.7155 217.391 42.9233L220.303 47.2675Z" fill="#DC0C1F"/>
<path d="M210.068 42.1211L210.52 45.9869C210.52 45.9869 208.582 47.018 206.516 45.9869L207.614 42.1211H210.068Z" fill="#F4A173"/>
<path d="M212.263 33.8757C212.263 33.8757 212.347 41.1205 209.968 42.7442C207.589 44.368 205.085 40.9067 203.959 36.2045C202.832 31.5022 212.054 29.2543 212.263 33.8757Z" fill="#F4A173"/>
<path d="M213.054 37.9756C213.653 37.9756 214.139 37.1564 214.139 36.1458C214.139 35.1352 213.653 34.3159 213.054 34.3159C212.455 34.3159 211.969 35.1352 211.969 36.1458C211.969 37.1564 212.455 37.9756 213.054 37.9756Z" fill="#F4A173"/>
<path d="M203.643 36.159C203.048 36.2307 202.664 37.1021 202.786 38.1054C202.907 39.1087 203.488 39.864 204.083 39.7924C204.678 39.7207 205.062 38.8493 204.94 37.846C204.819 36.8427 204.238 36.0874 203.643 36.159Z" fill="#F4A173"/>
<path d="M207.251 32.0365C207.251 32.0365 207.188 35.9681 211.258 35.2375C214.23 34.7039 212.121 32.0853 210.767 30.7117C210.216 30.1525 209.362 30.0078 208.664 30.3677C207.92 30.7511 207.129 31.3329 207.251 32.0365Z" fill="#344A9F"/>
<path d="M208.515 31.7301C208.315 31.8515 207.474 36.1833 203.957 36.2041C200.441 36.225 203.957 33.0663 203.957 33.0663L205.839 31.3402L208.515 31.0818V31.7301Z" fill="#344A9F"/>
<path d="M208.333 35.3285L209.158 38.4957L207.879 38.6863L208.333 35.3285Z" fill="#FF5F76"/>
<path d="M210.292 37.1191C211.103 37.1191 211.76 36.4634 211.76 35.6547C211.76 34.8459 211.103 34.1902 210.292 34.1902C209.481 34.1902 208.824 34.8459 208.824 35.6547C208.824 36.4634 209.481 37.1191 210.292 37.1191Z" fill="#211915"/>
<path d="M206.409 37.4717C207.22 37.4717 207.877 36.8161 207.877 36.0073C207.877 35.1985 207.22 34.5429 206.409 34.5429C205.599 34.5429 204.941 35.1985 204.941 36.0073C204.941 36.8161 205.599 37.4717 206.409 37.4717Z" fill="#211915"/>
<path d="M211.599 35.0153L212.316 34.6583L212.203 34.4313L211.486 34.7882L211.599 35.0153Z" fill="#211915"/>
<path d="M207.257 35.2714L209.176 35.0256L209.143 34.7739L207.225 35.0198L207.257 35.2714Z" fill="#211915"/>
<path d="M205.099 35.7856L205.137 35.5347L203.748 35.3271L203.711 35.578L205.099 35.7856Z" fill="#211915"/>
<path d="M212.507 35.2615C212.507 35.2615 213.014 34.6788 213.304 34.9557C213.593 35.2327 213.823 35.8709 213.641 36.533C213.46 37.1951 213.176 37.1469 213.053 37.1231C212.929 37.099 212.796 36.7376 212.954 36.4248C213.11 36.112 213.235 36.0756 213.106 35.8712C212.978 35.666 212.193 35.8442 212.507 35.2615Z" fill="#D37A4F"/>
<path d="M204.425 36.8136C204.425 36.8136 203.918 36.2309 203.629 36.5079C203.339 36.7848 203.11 37.4228 203.291 38.0852C203.472 38.7473 203.757 38.6991 203.88 38.675C204.003 38.6509 204.136 38.2895 203.979 37.9767C203.822 37.6636 203.697 37.6274 203.826 37.4228C203.955 37.2182 204.739 37.3964 204.425 36.8136Z" fill="#D37A4F"/>
<path d="M210.668 40.0557C210.668 40.0557 210.543 39.0837 209.677 39.3809C208.812 39.6779 208.189 40.0557 207.459 39.4618C206.729 38.8679 206.16 40.2177 207.459 40.7845C208.758 41.3513 210.224 41.4054 210.668 40.0557Z" fill="white"/>
<path d="M213.201 38.574C213.532 38.574 213.8 38.3063 213.8 37.976C213.8 37.6458 213.532 37.3781 213.201 37.3781C212.87 37.3781 212.602 37.6458 212.602 37.976C212.602 38.3063 212.87 38.574 213.201 38.574Z" fill="white"/>
<path d="M204.103 40.2374C204.434 40.2374 204.703 39.9696 204.703 39.6394C204.703 39.3091 204.434 39.0414 204.103 39.0414C203.772 39.0414 203.504 39.3091 203.504 39.6394C203.504 39.9696 203.772 40.2374 204.103 40.2374Z" fill="white"/>
<path d="M212.739 34.19C212.739 34.19 211.903 31.3403 207.876 31.3403C203.849 31.3403 203.643 36.1589 203.643 36.1589C203.643 36.1589 202.18 30.934 206.921 29.7538C211.663 28.574 212.739 34.19 212.739 34.19Z" fill="white"/>
<path d="M229.862 33.2284C229.862 33.2284 228.881 32.7941 228.437 31.7287C227.992 30.6632 227.629 30.6755 227.373 30.2166C227.117 29.7574 227.549 29.3246 228.006 29.6154C228.462 29.9061 228.436 30.5923 229.307 29.7709C229.307 29.7709 229.194 28.7887 229.608 28.8136C230.022 28.838 230.197 29.3561 230.197 29.3561C230.197 29.3561 230.934 28.5561 231.307 29.1785C231.681 29.8006 231.681 29.8006 231.681 29.8006C231.681 29.8006 232.422 29.5913 232.5 30.0787C232.579 30.5665 232.223 30.6203 232.223 30.6203C232.223 30.6203 233.188 30.1052 232.886 31.0624C232.702 31.6457 232.137 32.5936 231.724 33.2454C231.465 33.6532 230.936 33.7922 230.508 33.5676L229.862 33.2284Z" fill="#F4A173"/>
<path d="M185.153 66.3955C185.153 66.3955 184.18 65.945 183.084 66.3131C181.987 66.6815 181.758 66.401 181.243 66.5113C180.728 66.6218 180.686 67.2307 181.206 67.3821C181.726 67.5338 182.226 67.0617 182.181 68.2562C182.181 68.2562 181.366 68.8192 181.658 69.1138C181.949 69.4084 182.454 69.1979 182.454 69.1979C182.454 69.1979 182.337 70.2783 183.052 70.1487C183.767 70.019 183.767 70.019 183.767 70.019C183.767 70.019 184.098 70.7132 184.517 70.4509C184.936 70.1887 184.742 69.8859 184.742 69.8859C184.742 69.8859 184.99 70.9496 185.513 70.0922C185.831 69.5701 186.174 68.5217 186.393 67.782C186.53 67.3195 186.286 66.8303 185.835 66.6571L185.153 66.3955Z" fill="#F4A173"/>
<path d="M174.665 93.7126L161.172 85.5036L172.315 68.8746L185.808 77.084L174.665 93.7126Z" fill="#344A9F"/>
<path d="M164.289 87.4004L177.782 95.6098L187.496 78.1118L174.003 69.9024L164.289 87.4004Z" fill="#344A9F"/>
<path d="M164.291 87.4006L163.609 85.0163L161.172 85.5035L164.291 87.4006Z" fill="#002E82"/>
<g opacity="0.48">
<path opacity="0.48" d="M163.676 85.0556L173.227 69.4283L174.071 69.9422L164.358 87.4402L163.676 85.0556Z" fill="#002E82"/>
</g>
<path d="M182.698 77.1742C183.016 77.1742 183.274 76.9166 183.274 76.5988C183.274 76.281 183.016 76.0234 182.698 76.0234C182.379 76.0234 182.121 76.281 182.121 76.5988C182.121 76.9166 182.379 77.1742 182.698 77.1742Z" fill="#002E82"/>
<path d="M178.264 74.4778C178.582 74.4778 178.84 74.2203 178.84 73.9027C178.84 73.5851 178.582 73.3276 178.264 73.3276C177.946 73.3276 177.688 73.5851 177.688 73.9027C177.688 74.2203 177.946 74.4778 178.264 74.4778Z" fill="#002E82"/>
<path d="M178.197 73.8623L180.964 69.3358C181.288 68.8049 181.797 68.4109 182.396 68.2272L182.312 67.954C181.646 68.1587 181.08 68.5967 180.719 69.1871L177.953 73.7135L178.197 73.8623Z" fill="#002E82"/>
<path d="M182.818 76.6733L185.585 72.1472C186.077 71.3425 186.134 70.3461 185.739 69.4827L185.479 69.6012C185.834 70.3788 185.783 71.2746 185.34 71.9984L182.574 76.5246L182.818 76.6733Z" fill="#002E82"/>
<path d="M237.646 5.07703L251.912 11.864L242.535 29.544L228.27 22.757L237.646 5.07703Z" fill="#F9AD5F"/>
<path d="M248.616 10.2955L234.351 3.50824L226.484 21.9071L240.75 28.6941L248.616 10.2955Z" fill="#F9AD5F"/>
<path d="M248.617 10.2955L249.54 12.5975L251.914 11.864L248.617 10.2955Z" fill="#CB6120"/>
<g opacity="0.48">
<path opacity="0.48" d="M249.469 12.5652L241.573 29.0865L240.68 28.6617L248.546 10.2629L249.469 12.5652Z" fill="#993129"/>
</g>
<path d="M231.417 23.497C231.735 23.497 231.993 23.2394 231.993 22.9216C231.993 22.6038 231.735 22.3463 231.417 22.3463C231.098 22.3463 230.84 22.6038 230.84 22.9216C230.84 23.2394 231.098 23.497 231.417 23.497Z" fill="#CB6120"/>
<path d="M236.1 25.7263C236.419 25.7263 236.677 25.4687 236.677 25.1509C236.677 24.8332 236.419 24.5756 236.1 24.5756C235.782 24.5756 235.523 24.8332 235.523 25.1509C235.523 25.4687 235.782 25.7263 236.1 25.7263Z" fill="#CB6120"/>
<path d="M232.686 31.4811C233.328 31.2091 233.846 30.7158 234.144 30.0916L236.431 25.3065L236.173 25.1836L233.885 29.9684C233.617 30.5297 233.152 30.9733 232.574 31.2179L232.686 31.4811Z" fill="#CB6120"/>
<path d="M229.118 30.3113L229.365 30.1666C228.932 29.4296 228.891 28.5326 229.257 27.7679L231.544 22.9828L231.286 22.8599L228.999 27.6447C228.592 28.4955 228.637 29.4922 229.118 30.3113Z" fill="#CB6120"/>
</g>
</svg>
